# 3ds Max Wavefront OBJ Exporter v0.97b - (c)2007 guruware
# File Created: 20.01.2018 13:48:36

mtllib Assets\\MTL\\note_A4_OBJ(3ds_Max_2013__Default_Scanline).mtl

#
# object note_A4_001
#

v  -109.1870 -13.5616 7.3367
v  -95.3567 -13.9523 5.6790
v  -95.7584 -28.1737 5.3668
v  -109.5887 -27.7830 6.9898
v  -95.3567 -13.9523 5.9787
v  -109.1870 -13.5616 7.6362
v  -109.5887 -27.7830 7.2893
v  -95.7584 -28.1737 5.6664
v  -99.0999 -146.4667 4.4646
v  -99.0999 -146.4667 4.7638
v  -112.9302 -146.0760 6.2869
v  -112.9302 -146.0760 5.9873
v  100.7143 -19.4908 0.0088
v  100.7143 -19.4908 0.3084
v  100.3126 -33.7122 0.3000
v  100.3126 -33.7122 0.0004
v  88.2603 142.9545 3.3181
v  88.2601 142.9542 3.6179
v  101.8217 142.3417 4.2559
v  101.8217 142.3417 3.9563
v  -108.3819 14.9389 7.4495
v  -108.3819 14.9389 7.7491
v  -107.9786 29.2180 7.7491
v  -107.9786 29.2180 7.4495
v  73.9212 9.7893 0.2179
v  56.7225 10.2751 0.0320
v  57.1258 24.5542 0.0974
v  74.3246 24.0684 0.3780
v  73.1161 -18.7112 0.3000
v  55.9174 -18.2254 0.3729
v  55.5157 -32.4468 0.5217
v  72.7144 -32.9326 0.3350
v  0.5780 -149.2824 4.3328
v  0.5780 -149.2824 4.6324
v  -14.0322 -148.8697 4.9547
v  -14.0322 -148.8697 4.6551
v  -20.2812 147.8974 0.0004
v  -20.2812 147.8974 0.3000
v  -5.6336 147.4836 0.3000
v  -5.6336 147.4836 0.0004
v  58.4888 144.8558 -0.0704
v  58.4871 144.8540 0.2300
v  74.8061 143.6319 2.1463
v  74.8069 143.6329 1.8458
v  101.5194 9.0097 0.4353
v  87.7882 9.3976 0.3725
v  88.1915 23.6767 0.5939
v  101.9227 23.2888 0.6831
v  86.9831 -19.1029 0.3026
v  86.5814 -33.3243 0.3000
v  83.2399 -151.6174 0.0272
v  83.2399 -151.6174 0.3268
v  69.3729 -151.2256 0.5010
v  69.3729 -151.2256 0.2014
v  -9.4839 12.1453 1.5679
v  -24.1315 12.5590 1.2406
v  -23.7281 26.8382 1.2382
v  -9.0805 26.4244 1.5619
v  -10.2890 -16.3552 2.3282
v  -24.9366 -15.9415 1.9507
v  -25.3383 -30.1629 2.4119
v  -10.6907 -30.5766 2.8254
v  -81.4948 -146.9640 2.9790
v  -81.4948 -146.9640 3.2784
v  -104.0198 149.9977 10.9950
v  -104.0198 149.9977 11.2946
v  -90.2869 149.0735 8.9089
v  -90.2874 149.0749 8.6067
v  -104.5400 135.6035 10.2457
v  -90.7884 135.4044 8.1513
v  -91.3877 121.1747 7.1306
v  -105.1710 121.4510 9.0794
v  -106.7505 72.6936 7.4495
v  -92.9202 72.3029 5.7642
v  -93.3923 55.5884 5.7642
v  -107.2226 55.9791 7.4495
v  -107.5963 42.7512 7.4495
v  -93.7660 42.3606 5.7642
v  -94.1482 28.8274 5.7642
v  -112.5299 -131.9035 5.9873
v  -98.6995 -132.2941 4.4646
v  -96.9965 -72.0053 4.4646
v  -110.8268 -71.6146 5.9873
v  -110.3703 -55.4532 6.1853
v  -96.5400 -55.8439 4.6326
v  -96.1491 -42.0048 4.9734
v  -109.9794 -41.6142 6.5632
v  -90.7878 135.4031 8.4532
v  -104.5399 135.6032 10.5454
v  -105.1708 121.4504 9.3792
v  -91.3873 121.1736 7.4320
v  -92.9202 72.3029 6.0641
v  -106.7505 72.6936 7.7491
v  -107.2226 55.9791 7.7491
v  -93.3923 55.5884 6.0641
v  -93.7660 42.3606 6.0641
v  -107.5963 42.7512 7.7491
v  -94.1482 28.8274 6.0641
v  -98.6995 -132.2941 4.7638
v  -112.5299 -131.9035 6.2869
v  -110.8268 -71.6146 6.2869
v  -96.9965 -72.0053 4.7638
v  -96.5400 -55.8439 4.9318
v  -110.3703 -55.4532 6.4849
v  -109.9794 -41.6142 6.8628
v  -96.1491 -42.0048 5.2728
v  101.5997 127.4269 3.0395
v  101.5993 127.4263 3.3388
v  101.8220 113.4714 2.6328
v  101.8227 113.4724 2.3338
v  102.7886 66.5205 1.0934
v  102.7882 66.5203 1.3930
v  102.6641 50.0402 1.1693
v  102.6642 50.0402 0.8697
v  96.9711 -152.0052 0.3000
v  96.9711 -152.0052 0.0004
v  97.3714 -137.8327 0.0004
v  97.3714 -137.8327 0.3000
v  99.0744 -77.5455 0.3000
v  99.0744 -77.5455 0.0004
v  99.5309 -61.3843 0.0004
v  99.5309 -61.3843 0.3000
v  52.1742 -150.7398 0.6792
v  52.5745 -136.5673 0.6792
v  69.7733 -137.0531 0.2014
v  71.4761 -76.7718 0.2014
v  54.2774 -76.2850 0.6792
v  54.7339 -60.1245 0.5945
v  71.9326 -60.6114 0.1697
v  72.3237 -46.7638 0.1053
v  55.1250 -46.2780 0.4187
v  55.5157 -32.4468 0.2221
v  72.7144 -32.9326 0.0354
v  -4.9626 133.7646 -0.7665
v  8.8083 133.3828 -0.3580
v  6.1330 120.9395 -0.4543
v  -5.2424 132.9270 -0.7913
v  -7.8525 69.9000 1.1548
v  6.7577 69.4873 0.9112
v  6.2855 52.7728 1.2396
v  -8.3246 53.1855 1.5619
v  -8.6983 39.9576 1.5619
v  5.9119 39.5449 1.2396
v  5.5296 26.0117 1.2396
v  74.5232 128.8976 1.3012
v  58.1527 130.3056 -0.5544
v  57.9286 115.8769 -0.7779
v  74.4363 114.6526 0.8380
v  75.1300 67.2594 0.4855
v  58.0221 67.8064 -0.0381
v  57.8730 51.3094 0.3246
v  75.0545 50.8120 0.6413
v  74.7068 37.6016 0.7391
v  57.5081 38.0875 0.4253
v  57.1258 24.5542 0.3970
v  74.3246 24.0684 0.6776
v  0.9783 -135.1098 4.6324
v  -13.6318 -134.6971 4.9547
v  -11.9288 -74.4083 4.2822
v  2.6813 -74.8218 3.9599
v  3.1378 -58.6605 3.4602
v  -11.4723 -58.2468 3.7825
v  -11.0814 -44.4078 3.3472
v  3.5288 -44.8205 3.0249
v  3.9195 -30.9893 2.5031
v  83.6403 -137.4448 0.0272
v  85.3434 -77.1526 0.0272
v  85.7999 -60.9907 0.0171
v  74.5242 128.8990 1.0012
v  88.0159 128.0100 2.4281
v  88.0176 113.8824 1.8037
v  74.4374 114.6541 0.5383
v  75.1303 67.2596 0.1860
v  88.9853 66.8598 0.7177
v  88.9178 50.4178 0.6765
v  75.0546 50.8120 0.3418
v  88.0152 128.0091 2.7275
v  88.0166 113.8811 2.1030
v  88.9848 66.8595 1.0172
v  88.9176 50.4177 0.9761
v  83.6403 -137.4448 0.3268
v  69.7733 -137.0531 0.5010
v  71.4762 -76.7659 0.5010
v  85.3432 -77.1576 0.3268
v  85.7997 -60.9964 0.3167
v  71.9328 -60.6047 0.4693
v  -28.6798 -148.4559 3.9513
v  -28.2794 -134.2833 3.9513
v  -13.6318 -134.6971 4.6551
v  -11.9288 -74.4083 3.9826
v  -26.5764 -73.9945 3.3962
v  -26.1199 -57.8331 2.9980
v  -11.4723 -58.2468 3.4829
v  -11.0814 -44.4078 3.0476
v  -25.7290 -43.9940 2.5997
v  -25.3383 -30.1629 2.1123
v  -10.6907 -30.5766 2.5258
v  -73.4024 135.4403 4.7576
v  -73.9013 120.9660 4.1889
v  -75.3151 71.8056 3.5880
v  -75.7873 55.0911 3.5880
v  -76.1609 41.8633 3.5880
v  -76.5432 28.3301 3.5880
v  -7.0613 133.8244 -0.4870
v  -20.8395 134.2148 0.2674
v  -19.6003 121.1521 0.1946
v  -6.8690 133.0191 -0.4846
v  -7.8525 69.9000 1.4544
v  -22.5001 70.3137 1.2098
v  -22.9722 53.5992 1.5378
v  -8.3246 53.1855 1.8615
v  -8.6983 39.9576 1.8615
v  -23.3459 40.3714 1.5378
v  -23.7281 26.8382 1.5378
v  -9.0805 26.4244 1.8615
v  -81.0945 -132.7914 3.2784
v  -79.3915 -72.5026 3.2784
v  -78.9350 -56.3412 3.3644
v  -78.5440 -42.5021 3.5428
v  -78.1534 -28.6710 3.7402
v  73.1161 -18.7112 0.0004
v  86.9831 -19.1029 0.0030
v  86.5814 -33.3243 0.0004
v  73.9212 9.7893 0.5175
v  87.7882 9.3976 0.6721
v  88.1915 23.6767 0.8935
v  70.1354 -124.2335 0.2014
v  84.0025 -124.6190 0.0272
v  102.1601 98.1319 1.8420
v  88.3245 98.4923 1.3909
v  74.6263 99.1052 0.5653
v  88.3233 98.4910 1.6907
v  97.7336 -125.0097 0.3000
v  84.0025 -124.6219 0.3268
v  102.3050 36.8221 1.0845
v  101.9227 23.2888 0.9827
v  102.3050 36.8221 0.7849
v  90.3388 35.3454 0.7026
v  91.1169 37.1381 0.7132
v  86.8331 35.4444 0.9540
v  86.1516 37.2783 0.9445
v  74.7068 37.6016 0.4395
v  86.8731 38.9966 0.6537
v  86.1516 37.2783 0.6449
v  90.4811 38.8947 1.0029
v  91.1169 37.1381 1.0128
v  90.4811 38.8947 0.7033
v  88.6440 39.6937 0.6773
v  86.8731 38.9966 0.9532
v  88.6440 39.6937 0.9769
v  86.8331 35.4444 0.6544
v  88.5023 34.6783 0.6772
v  90.3388 35.3454 1.0022
v  88.5023 34.6783 0.9768
v  99.9219 -47.5434 0.3000
v  99.9219 -47.5434 0.0004
v  88.6015 -47.2236 0.0004
v  87.9253 -45.4050 0.0004
v  72.3237 -46.7638 0.4049
v  83.6362 -47.0833 0.3100
v  84.4196 -45.3060 0.3050
v  83.6362 -47.0833 0.0105
v  84.2591 -48.8547 0.0103
v  88.6015 -47.2236 0.3000
v  87.8671 -48.9566 0.3005
v  86.1201 -49.6544 0.0046
v  87.8671 -48.9566 0.0009
v  86.1201 -49.6544 0.3042
v  84.2591 -48.8547 0.3099
v  86.2618 -44.6390 0.0011
v  84.4196 -45.3060 0.0054
v  86.2618 -44.6390 0.3007
v  87.9253 -45.4050 0.3000
v  -5.2735 134.5184 -0.7696
v  -6.0202 134.7706 -0.7667
v  8.9717 147.0884 -0.1663
v  -72.9447 149.2159 5.0181
v  -6.7508 134.5179 -0.4874
v  -6.0201 134.7735 -0.4872
v  -112.1676 -119.0796 5.9873
v  -98.3373 -119.4703 4.4646
v  -98.3373 -119.4703 4.7638
v  -112.1676 -119.0796 6.2869
v  97.7336 -125.0097 0.0004
v  52.9367 -123.7472 0.6792
v  1.3405 -122.2864 4.6324
v  -13.2696 -121.8732 4.9547
v  70.1355 -124.2302 0.5010
v  -27.9172 -121.4595 3.9513
v  -13.2696 -121.8732 4.6551
v  -80.7322 -119.9676 3.2784
v  70.5763 -108.6269 0.2014
v  84.4434 -109.0108 0.0272
v  98.1745 -109.4023 0.3000
v  84.4433 -109.0144 0.3268
v  -105.8085 105.6336 7.9264
v  -91.9863 105.2626 6.1509
v  -92.4480 89.0174 5.8033
v  -106.2783 89.4081 7.5081
v  -91.9862 105.2624 6.4513
v  -105.8084 105.6334 8.2261
v  -106.2783 89.4081 7.8077
v  -92.4480 89.0174 6.1032
v  102.1592 98.1308 2.1410
v  102.6152 82.7606 1.7465
v  102.6160 82.7614 1.4472
v  -6.9378 102.8727 0.0099
v  7.7275 102.6354 -0.1151
v  7.2635 86.1945 0.2330
v  -7.3805 86.6125 0.4010
v  57.8531 100.0104 -0.5885
v  57.9263 84.1384 -0.3370
v  74.9580 83.5373 0.4193
v  74.6273 99.1063 0.2656
v  88.7773 83.0901 0.9151
v  74.9584 83.5377 0.1197
v  88.7764 83.0893 1.2149
v  -74.3839 104.7718 3.7612
v  -74.8430 88.5201 3.5883
v  -6.9381 102.8729 0.3152
v  -21.6900 103.4124 0.3274
v  -22.0279 87.0282 0.5796
v  -7.3805 86.6125 0.7006
v  -94.5516 14.5482 5.7642
v  -94.9549 0.2691 5.7642
v  -108.7853 0.6598 7.4495
v  -94.5516 14.5482 6.0641
v  -108.7853 0.6598 7.7491
v  -94.9549 0.2691 6.0641
v  101.5194 9.0097 0.7349
v  101.1160 -5.2694 0.4677
v  101.1160 -5.2694 0.1681
v  55.9174 -18.2254 0.0733
v  56.3191 -4.0040 0.0011
v  73.5179 -4.4898 0.0547
v  56.7225 10.2751 0.3316
v  56.3191 -4.0040 0.3007
v  73.5179 -4.4898 0.3543
v  87.3848 -4.8815 0.1336
v  87.3848 -4.8815 0.4332
v  -10.2890 -16.3552 2.0285
v  -24.9366 -15.9415 1.6511
v  -24.5348 -1.7201 1.3610
v  -9.8872 -2.1338 1.7062
v  -9.4839 12.1453 1.8675
v  -24.1315 12.5590 1.5402
v  -24.5348 -1.7201 1.6606
v  -9.8872 -2.1338 2.0058
v  -97.8964 -103.8626 4.4646
v  -111.7267 -103.4719 5.9873
v  -111.2844 -87.8121 5.9873
v  -97.4540 -88.2028 4.4646
v  -111.7267 -103.4719 6.2869
v  -97.8964 -103.8626 4.7638
v  -97.4540 -88.2028 4.7638
v  -111.2844 -87.8121 6.2869
v  98.1745 -109.4023 0.0004
v  98.6169 -93.7427 0.0004
v  98.6169 -93.7427 0.3000
v  53.3775 -108.1404 0.6792
v  53.8199 -92.4815 0.6792
v  71.0186 -92.9682 0.2014
v  -12.8287 -106.2655 4.9547
v  1.7814 -106.6788 4.6324
v  2.2238 -91.0191 4.4089
v  -12.3863 -90.6057 4.7311
v  84.8858 -93.3506 0.0272
v  70.5764 -108.6227 0.5010
v  84.8857 -93.3548 0.3268
v  71.0187 -92.9631 0.5010
v  -12.8287 -106.2655 4.6551
v  -27.4763 -105.8518 3.9513
v  -27.0339 -90.1920 3.7720
v  -12.3863 -90.6057 4.4316
v  -80.2914 -104.3599 3.2784
v  -79.8490 -88.7001 3.2784
v  5.1263 11.7326 1.2456
v  4.7229 -2.5465 1.3839
v  4.3212 -16.7679 2.0058
v  4.7229 -2.5465 1.6835
v  17.7767 -149.7682 3.0565
v  17.7767 -149.7682 3.3563
v  8.9716 147.0883 0.1330
v  0.9783 -135.1098 4.3328
v  2.6812 -74.8247 3.6604
v  2.2237 -91.0217 4.1093
v  3.9195 -30.9893 2.2034
v  3.5288 -44.8205 2.7252
v  25.4124 132.6237 -0.8402
v  24.8507 118.0187 -0.6968
v  24.3266 85.6473 -0.3422
v  23.9564 69.0014 0.1507
v  23.1106 39.0591 0.4695
v  22.7283 25.5259 0.4695
v  -6.0799 132.6767 -0.4815
v  -6.5594 119.0895 0.1148
v  6.1278 120.9452 -0.0577
v  -5.2378 132.9221 -0.4485
v  6.7577 69.4873 1.2108
v  7.2635 86.1945 0.5326
v  5.5296 26.0117 1.5392
v  5.9119 39.5449 1.5392
v  18.1771 -135.5956 3.3563
v  19.4225 -91.5051 3.1889
v  19.8800 -75.3078 2.8380
v  20.7275 -45.3063 2.0858
v  21.1182 -31.4751 1.6108
v  23.4843 52.2870 0.4683
v  6.2855 52.7728 1.5392
v  3.1377 -58.6638 3.1606
v  20.3366 -59.1465 2.4732
v  25.8315 146.3743 -0.9083
v  -5.2698 134.5216 -0.4918
v  -4.9589 133.7644 -0.4883
v  8.8074 133.3841 -0.0162
v  1.3405 -122.2881 4.3328
v  18.5393 -122.7723 3.3563
v  24.6088 101.7852 -0.4840
v  7.7267 102.6362 0.1971
v  4.3212 -16.7679 1.7062
v  5.1263 11.7326 1.5452
v  1.7814 -106.6809 4.3328
v  18.9802 -107.1648 3.3563
v  -37.8862 148.4019 0.1611
v  -37.8862 148.4019 0.4613
v  -42.1399 -1.2228 0.6602
v  -41.7365 13.0563 0.6030
v  -42.1399 -1.2228 0.9602
v  -42.5416 -15.4442 1.1513
v  -28.6798 -148.4559 4.2511
v  -46.2848 -147.9586 2.2744
v  -45.8844 -133.7860 2.2744
v  -44.6390 -89.6947 2.1848
v  -44.1814 -73.4972 2.0220
v  -43.3340 -43.4967 1.5586
v  -42.9433 -29.6656 1.1854
v  -6.0798 132.6807 -0.7589
v  -6.5575 119.0880 -0.2354
v  -19.5998 121.1522 -0.1091
v  -6.8651 133.0229 -0.7614
v  -22.5001 70.3137 0.9102
v  -22.0279 87.0282 0.2800
v  -23.3459 40.3714 1.2382
v  -38.3038 134.6744 0.4974
v  -38.6341 120.0284 0.5109
v  -39.6329 87.5255 0.4754
v  -40.1051 70.8110 0.7390
v  -40.9509 40.8687 0.9031
v  -41.3332 27.3355 0.9031
v  -28.2794 -134.2833 4.2511
v  -26.5764 -73.9945 3.6959
v  -27.0339 -90.1920 4.0717
v  -25.7290 -43.9940 2.8993
v  -22.9722 53.5992 1.2382
v  -40.5772 54.0965 0.9031
v  -43.7249 -57.3358 1.8622
v  -26.1199 -57.8331 3.2977
v  -6.7477 134.5149 -0.7672
v  -7.0582 133.8243 -0.7662
v  -20.8394 134.2148 -0.0314
v  -45.5222 -120.9622 2.2744
v  -27.9172 -121.4595 4.2511
v  -21.6899 103.4124 0.0272
v  -39.1744 103.7784 0.4692
v  -42.5416 -15.4442 0.8512
v  -41.7365 13.0563 0.9031
v  -45.0813 -105.3545 2.2744
v  -27.4763 -105.8518 4.2511
v  -8.5452 137.0410 10.8062
v  -6.1056 137.7654 11.4324
v  -6.1204 138.7618 8.2242
v  -9.1815 137.4811 8.3160
v  -9.1473 134.6352 11.6561
v  -10.3714 134.3887 8.5376
v  -6.0562 134.7609 12.7786
v  -3.6305 137.1122 10.8034
v  -2.9508 137.5932 8.3074
v  -2.9107 134.7300 11.6636
v  -1.7573 134.5040 8.5299
v  -3.6537 136.7362 5.9190
v  -6.0979 137.3046 5.2422
v  -2.9423 134.2944 5.4795
v  -6.0619 134.6890 4.6502
v  -6.0812 135.9369 4.7699
v  -5.0164 134.9889 4.8180
v  -5.7611 134.4029 4.6615
v  -8.5300 136.6767 5.9103
v  -7.8040 134.1648 4.8957
v  -9.1282 134.1924 5.4707
v  -6.8970 135.1693 4.8086
v  -8.4734 132.1173 11.1701
v  -9.0865 131.3107 8.7581
v  -5.9872 130.1245 8.8431
v  -5.9998 131.5670 11.8814
v  -3.5386 132.1982 11.1478
v  -2.9014 131.4068 8.7512
v  -3.5626 131.8681 6.2377
v  -6.0062 131.1581 5.7177
v  -4.2973 134.2147 4.8883
v  -5.2006 133.2204 4.9649
v  -8.4595 131.7798 6.2434
v  -6.0479 133.6507 4.7180
v  -6.0290 132.4326 5.0095
v  -6.9930 133.3173 4.9552
v  -6.3721 133.9544 4.6962
v  -5.6904 133.2371 -11.0225
v  -6.0619 133.4266 -12.1021
v  -6.0626 133.8466 -6.8801
v  -5.8165 133.6088 -6.8537
v  -6.5749 133.0907 -10.2050
v  -6.5712 133.3470 -6.8293
v  -6.3352 133.5825 -6.8526
v  -6.3536 133.2355 -11.0229
v  -6.0469 132.7257 -8.1197
v  -6.0473 132.8458 -6.7724
v  -6.3572 133.1382 -6.8048
v  -6.3167 132.9115 -9.1827
v  -5.8242 132.8958 -9.0866
v  -5.5676 133.0933 -10.2055
v  -5.5720 133.3622 -6.8276
v  -5.8003 133.1090 -6.7997
v  -6.0609 134.2613 -0.9003
v  -5.7850 134.0044 -0.8830
v  -6.5581 133.7767 -0.8652
v  -6.3037 134.0412 -0.8842
v  -6.0498 133.2888 -0.8326
v  -6.3646 133.5724 -0.8517
v  -5.5849 133.7878 -0.8682
v  -5.8039 133.5320 -0.8501
v  -6.0612 134.6532 4.4491
v  -5.7663 134.3694 4.4643
v  -6.5656 134.1582 4.4857
v  -6.3012 134.4275 4.4653
v  -6.0476 133.6596 4.5133
v  -6.3284 133.9204 4.4995
v  -5.5762 134.1710 4.4759
v  -5.8105 133.9072 4.4947
v  -6.0527 133.0686 -10.0724
v  -6.5883 134.1720 4.6807
v  -6.3260 134.4401 4.6573
v  -5.5518 134.1861 4.6797
v  -5.8028 133.9047 4.6998
v  -46.2848 -147.9586 2.5749
v  -63.8898 -147.4613 2.0177
v  -63.8898 -147.4613 1.7179
v  -38.3038 134.6744 0.1973
v  -38.6341 120.0284 0.2105
v  -56.3198 120.5246 1.4152
v  -55.9052 135.2054 1.5502
v  -39.6329 87.5255 0.1753
v  -40.1051 70.8110 0.4390
v  -57.7101 71.3083 1.2816
v  -57.2380 88.0228 1.2816
v  -40.9509 40.8687 0.6030
v  -41.3332 27.3355 0.6030
v  -58.9382 27.8328 1.2816
v  -58.5559 41.3660 1.2816
v  -45.8844 -133.7860 2.5749
v  -63.4895 -133.2887 2.0177
v  -44.6390 -89.6947 2.4852
v  -44.1814 -73.4972 2.3222
v  -61.7865 -72.9999 2.0177
v  -62.2440 -89.1974 2.0177
v  -43.3340 -43.4967 1.8588
v  -42.9433 -29.6656 1.4855
v  -60.5483 -29.1683 1.8177
v  -60.9390 -42.9994 1.9273
v  -40.5772 54.0965 0.6030
v  -58.1822 54.5938 1.2816
v  -43.7249 -57.3358 2.1624
v  -61.3299 -56.8385 1.9921
v  -55.4913 148.8992 1.6079
v  -45.5222 -120.9622 2.5749
v  -63.1272 -120.4649 2.0177
v  -39.1744 103.7784 0.1692
v  -56.7789 104.2745 1.2886
v  -45.0813 -105.3545 2.5749
v  -62.6863 -104.8572 2.0177
v  -72.9439 149.2140 5.3221
v  -55.4913 148.8992 1.9098
v  -77.3499 -0.2282 3.5880
v  -76.9466 14.0509 3.5880
v  -59.3415 13.5536 1.2816
v  -59.7449 -0.7255 1.2841
v  -77.3499 -0.2282 3.8888
v  -77.7516 -14.4496 3.8763
v  -60.1466 -14.9469 1.6686
v  -59.7449 -0.7255 1.5849
v  -81.0945 -132.7914 2.9790
v  -63.4895 -133.2887 1.7179
v  -79.8490 -88.7001 2.9790
v  -79.3915 -72.5026 2.9790
v  -61.7865 -72.9999 1.7179
v  -62.2440 -89.1974 1.7179
v  -78.5440 -42.5021 3.2430
v  -78.1534 -28.6710 3.4400
v  -60.5483 -29.1683 1.5171
v  -60.9390 -42.9994 1.6271
v  -73.4018 135.4387 5.0612
v  -73.9009 120.9653 4.4913
v  -56.3198 120.5246 1.7167
v  -55.9052 135.2054 1.8519
v  -74.8430 88.5201 3.8890
v  -75.3151 71.8056 3.8888
v  -57.7101 71.3083 1.5824
v  -57.2380 88.0228 1.5824
v  -76.1609 41.8633 3.8888
v  -76.5432 28.3301 3.8888
v  -58.9382 27.8328 1.5825
v  -58.5559 41.3660 1.5825
v  -75.7873 55.0911 3.8888
v  -58.1822 54.5938 1.5825
v  -78.9350 -56.3412 3.0648
v  -61.3299 -56.8385 1.6922
v  -80.7322 -119.9676 2.9790
v  -63.1272 -120.4649 1.7179
v  -74.3839 104.7718 4.0624
v  -56.7789 104.2745 1.5896
v  -77.7516 -14.4496 3.5757
v  -60.1466 -14.9469 1.3678
v  -76.9466 14.0509 3.8888
v  -59.3415 13.5536 1.5825
v  -80.2914 -104.3599 2.9790
v  -62.6863 -104.8572 1.7179
v  21.9216 -3.0324 0.5847
v  22.3250 11.2468 0.4711
v  39.5237 10.7609 0.0022
v  39.1204 -3.5182 0.0505
v  21.9216 -3.0324 0.8843
v  21.5199 -17.2538 1.1629
v  38.7187 -17.7396 0.5279
v  39.1204 -3.5182 0.3501
v  25.8307 146.3737 -0.6097
v  42.3316 145.3808 -0.7155
v  42.3333 145.3822 -1.0149
v  18.1771 -135.5956 3.0565
v  35.3758 -136.0815 1.5471
v  34.9755 -150.2540 1.5471
v  19.4224 -91.5083 2.8892
v  19.8799 -75.3115 2.5383
v  37.0786 -75.7982 1.3363
v  36.6211 -91.9949 1.4688
v  20.7275 -45.3063 1.7862
v  21.1182 -31.4751 1.3112
v  38.3169 -31.9610 0.5419
v  37.9262 -45.7921 0.8976
v  25.4117 132.6233 -0.5397
v  24.8495 118.0191 -0.3876
v  41.5675 117.0648 -1.0267
v  41.9418 131.7042 -1.0434
v  24.3264 85.6471 -0.0426
v  23.9564 69.0014 0.4502
v  41.0324 68.4330 -0.0868
v  41.1331 84.8973 -0.4390
v  23.1106 39.0591 0.7691
v  22.7283 25.5259 0.7691
v  39.9271 25.0401 0.3018
v  40.3094 38.5733 0.3018
v  23.4843 52.2870 0.7679
v  40.6830 51.8011 0.2384
v  20.3364 -59.1507 2.1736
v  37.5351 -59.6376 1.1888
v  18.5392 -122.7744 3.0565
v  35.7379 -123.2608 1.5471
v  24.6084 101.7851 -0.1840
v  41.2429 100.9138 -0.6990
v  21.5199 -17.2538 0.8632
v  38.7187 -17.7396 0.2283
v  22.3250 11.2468 0.7707
v  39.5237 10.7609 0.3018
v  18.9801 -107.1674 3.0565
v  36.1788 -107.6539 1.5471
v  52.1742 -150.7398 0.9788
v  34.9755 -150.2540 1.8469
v  58.1545 130.3075 -0.8544
v  57.9301 115.8785 -1.0776
v  41.5682 117.0654 -1.3257
v  41.9432 131.7053 -1.3424
v  57.9269 84.1388 -0.6367
v  58.0225 67.8066 -0.3377
v  41.0326 68.4331 -0.3864
v  41.1336 84.8976 -0.7386
v  57.5081 38.0875 0.1257
v  39.9271 25.0401 0.0022
v  40.3094 38.5733 0.0022
v  52.5745 -136.5673 0.9788
v  35.3758 -136.0815 1.8469
v  53.8200 -92.4771 0.9788
v  54.2775 -76.2799 0.9788
v  37.0788 -75.7938 1.6360
v  36.6212 -91.9911 1.7686
v  55.1250 -46.2780 0.7183
v  38.3169 -31.9610 0.8416
v  37.9262 -45.7921 1.1973
v  57.8730 51.3095 0.0250
v  40.6830 51.8011 -0.0612
v  54.7340 -60.1186 0.8941
v  37.5353 -59.6326 1.4884
v  52.9368 -123.7442 0.9788
v  35.7380 -123.2583 1.8469
v  57.8542 100.0113 -0.8881
v  41.2435 100.9142 -0.9983
v  53.3776 -108.1367 0.9788
v  36.1789 -107.6507 1.8469
# 704 vertices

vn -0.1179 0.0188 -0.9929
vn -0.1186 0.0175 -0.9928
vn -0.1136 0.0272 -0.9932
vn -0.1151 0.0301 -0.9929
vn 0.1180 -0.0175 0.9929
vn 0.1189 -0.0189 0.9927
vn 0.1163 -0.0301 0.9928
vn 0.1130 -0.0272 0.9932
vn -0.0282 -0.9996 -0.0000
vn 0.9996 -0.0282 0.0000
vn 0.0478 0.9989 0.0011
vn 0.0475 0.9989 0.0011
vn 0.0451 0.9990 0.0000
vn -0.9996 0.0282 -0.0000
vn 0.0114 0.0109 -0.9999
vn 0.0052 0.0031 -1.0000
vn 0.0105 0.0040 -0.9999
vn 0.0160 0.0083 -0.9998
vn 0.0023 -0.0005 1.0000
vn 0.0063 0.0087 0.9999
vn 0.0151 0.0100 0.9998
vn 0.0071 0.0025 1.0000
vn -0.0282 -0.9996 0.0000
vn 0.0284 0.9996 -0.0000
vn 0.0276 0.9996 0.0000
vn 0.0520 0.9986 0.0061
vn 0.0542 0.9985 0.0061
vn 0.0613 0.9981 0.0034
vn 0.0630 0.9980 0.0034
vn 0.0055 0.0174 -0.9998
vn 0.0086 0.0156 -0.9998
vn 0.0112 0.0116 -0.9999
vn 0.0067 0.0124 -0.9999
vn -0.0005 -0.0058 1.0000
vn -0.0004 -0.0046 1.0000
vn 0.0012 -0.0002 1.0000
vn 0.0000 -0.0003 1.0000
vn -0.0000 -0.0050 -1.0000
vn 0.0298 -0.0048 -0.9995
vn 0.0291 -0.0009 -0.9996
vn 0.0000 -0.0002 -1.0000
vn -0.0014 0.0285 0.9996
vn -0.0348 0.0259 0.9991
vn -0.0394 0.0355 0.9986
vn -0.0021 0.0364 0.9993
vn 0.0671 0.9977 0.0001
vn 0.0671 0.9977 0.0000
vn 0.0348 0.9994 0.0042
vn 0.0259 0.9997 0.0043
vn -0.1465 0.0696 -0.9868
vn -0.1689 0.0571 -0.9840
vn -0.1485 0.0688 -0.9865
vn -0.1350 0.0792 -0.9877
vn -0.1208 0.0052 -0.9927
vn -0.1218 0.0048 -0.9925
vn -0.1217 0.0034 -0.9926
vn -0.1209 0.0034 -0.9927
vn -0.0967 0.0027 -0.9953
vn -0.1093 0.0031 -0.9940
vn -0.0968 0.0082 -0.9953
vn -0.1092 0.0092 -0.9940
vn -0.1104 0.0223 -0.9936
vn -0.1006 0.0188 -0.9947
vn -0.1071 0.0282 -0.9939
vn -0.1126 0.0314 -0.9931
vn 0.1652 -0.0560 0.9847
vn 0.1536 -0.0681 0.9858
vn 0.1405 -0.0798 0.9869
vn 0.1456 -0.0689 0.9869
vn 0.1217 -0.0046 0.9926
vn 0.1211 -0.0048 0.9926
vn 0.1208 -0.0034 0.9927
vn 0.1217 -0.0034 0.9926
vn 0.1094 -0.0031 0.9940
vn 0.0967 -0.0027 0.9953
vn 0.1097 -0.0087 0.9939
vn 0.0972 -0.0073 0.9952
vn 0.1007 -0.0193 0.9947
vn 0.1116 -0.0222 0.9935
vn 0.1139 -0.0315 0.9930
vn 0.1064 -0.0282 0.9939
vn 1.0000 0.0010 0.0015
vn 1.0000 -0.0001 0.0015
vn 0.9998 0.0188 0.0024
vn 0.9998 0.0189 0.0024
vn 1.0000 0.0014 0.0013
vn 1.0000 0.0016 0.0013
vn 0.9999 -0.0173 0.0003
vn 0.9998 -0.0174 0.0003
vn -0.9992 0.0401 0.0004
vn -0.9992 0.0405 0.0004
vn -0.9991 0.0422 0.0008
vn -0.9991 0.0424 0.0008
vn -0.0202 0.0006 -0.9998
vn -0.0391 0.0011 -0.9992
vn -0.0198 -0.0008 -0.9998
vn -0.0336 -0.0031 -0.9994
vn -0.0302 -0.0077 -0.9995
vn -0.0168 -0.0032 -0.9999
vn -0.0125 -0.0055 -0.9999
vn -0.0253 -0.0128 -0.9996
vn -0.0174 -0.0121 -0.9998
vn -0.0062 -0.0034 -1.0000
vn 0.0339 0.0085 -0.9994
vn -0.0033 0.0091 -1.0000
vn -0.0093 -0.0138 -0.9999
vn 0.0108 -0.0179 -0.9998
vn -0.0016 -0.0340 -0.9994
vn -0.0294 -0.0285 -0.9992
vn -0.0331 -0.0095 -0.9994
vn -0.0009 -0.0115 -0.9999
vn 0.0000 -0.0000 -1.0000
vn -0.0334 0.0009 -0.9994
vn -0.0334 0.0008 -0.9994
vn -0.1096 -0.0410 0.9931
vn -0.0777 -0.0302 0.9965
vn -0.0604 -0.0013 0.9982
vn -0.0929 -0.0241 0.9954
vn -0.0349 0.0059 0.9994
vn -0.0186 0.0184 0.9997
vn -0.0129 0.0135 0.9998
vn -0.0219 0.0063 0.9997
vn -0.0179 0.0021 0.9998
vn -0.0123 0.0028 0.9999
vn -0.0115 -0.0030 0.9999
vn -0.0152 -0.0076 0.9999
vn -0.0130 0.0004 0.9999
vn 0.0480 -0.0014 0.9988
vn -0.0081 0.0295 0.9995
vn 0.0440 0.0263 0.9987
vn 0.0405 0.0300 0.9987
vn -0.0051 0.0302 0.9995
vn -0.0030 0.0344 0.9994
vn 0.0396 0.0331 0.9987
vn 0.0379 0.0345 0.9987
vn -0.0019 0.0001 -1.0000
vn -0.0073 0.0002 -1.0000
vn -0.0018 -0.0001 -1.0000
vn -0.0071 -0.0003 -1.0000
vn -0.0062 -0.0006 -1.0000
vn -0.0009 -0.0003 -1.0000
vn 0.1083 0.0425 -0.9932
vn 0.0777 0.0518 -0.9956
vn 0.0687 0.0345 -0.9970
vn 0.0913 0.0224 -0.9956
vn 0.0328 -0.0050 -0.9995
vn 0.0336 0.0068 -0.9994
vn 0.0206 -0.0007 -0.9998
vn 0.0217 -0.0095 -0.9997
vn -0.0454 -0.0539 0.9975
vn -0.0767 -0.0493 0.9958
vn -0.0682 -0.0369 0.9970
vn -0.0381 -0.0402 0.9985
vn -0.0246 -0.0146 0.9996
vn -0.0326 -0.0072 0.9994
vn -0.0206 -0.0025 0.9998
vn -0.0126 -0.0080 0.9999
vn 0.0202 -0.0006 0.9998
vn 0.0073 -0.0002 1.0000
vn 0.0200 0.0002 0.9998
vn 0.0072 0.0000 1.0000
vn 0.0063 0.0009 1.0000
vn 0.0171 0.0037 0.9998
vn 0.0130 -0.0004 -0.9999
vn 0.0714 -0.0020 -0.9974
vn 0.0074 -0.0287 -0.9996
vn 0.0587 -0.0228 -0.9980
vn 0.0487 -0.0289 -0.9984
vn 0.0043 -0.0310 -0.9995
vn 0.0030 -0.0344 -0.9994
vn 0.0450 -0.0328 -0.9984
vn 0.0406 -0.0344 -0.9986
vn 0.0017 -0.0361 -0.9993
vn -0.1890 0.0349 -0.9814
vn -0.1674 0.0380 -0.9852
vn -0.1265 0.0039 -0.9920
vn -0.1262 0.0036 -0.9920
vn 0.0508 -0.0088 0.9987
vn 0.0321 -0.0027 0.9995
vn 0.0187 0.0086 0.9998
vn 0.0281 0.0270 0.9992
vn 0.0003 0.0341 0.9994
vn -0.0185 0.0263 0.9995
vn -0.0281 0.0112 0.9995
vn -0.0003 0.0115 0.9999
vn -0.0000 0.0000 1.0000
vn -0.0290 0.0008 0.9996
vn -0.0290 0.0009 0.9996
vn -0.0000 0.0002 1.0000
vn 0.0777 -0.0022 0.9970
vn 0.0785 -0.0041 0.9969
vn 0.0822 -0.0120 0.9965
vn 0.0909 -0.0155 0.9957
vn 0.1065 -0.0119 0.9942
vn -0.0010 -0.0003 -1.0000
vn 0.0007 0.0037 -1.0000
vn -0.0013 0.0001 -1.0000
vn -0.0102 -0.0100 0.9999
vn -0.0084 -0.0149 0.9999
vn -0.0114 -0.0112 0.9999
vn 0.0486 0.0595 -0.9970
vn 0.0473 0.0558 -0.9973
vn 0.0811 0.0579 -0.9950
vn 0.0398 0.0385 -0.9985
vn 0.0333 0.0296 -0.9990
vn 0.0609 0.0291 -0.9977
vn -0.1144 -0.0544 0.9919
vn -0.0810 -0.0579 0.9950
vn -0.0724 -0.0113 0.9973
vn -0.0571 -0.0265 0.9980
vn 0.0019 -0.0001 1.0000
vn 0.9996 -0.0277 0.0000
vn 0.0069 0.0061 -1.0000
vn 0.0077 0.0064 -1.0000
vn 0.0064 -0.0001 -1.0000
vn -0.0182 -0.0047 0.9998
vn -0.0185 -0.0003 0.9998
vn 0.0179 -0.0020 -0.9998
vn 0.0176 -0.0071 -0.9998
vn 0.0185 0.0003 -0.9998
vn -0.0141 0.0005 0.9999
vn -0.0086 -0.0028 1.0000
vn -0.0063 -0.0066 1.0000
vn 0.0155 0.0051 -0.9999
vn 0.0106 0.0004 -0.9999
vn 0.0172 -0.0029 -0.9998
vn -0.0176 0.0071 0.9998
vn -0.0171 0.0029 0.9998
vn 0.0183 0.0042 -0.9998
vn 0.0137 0.0069 -0.9999
vn -0.0063 -0.0119 0.9999
vn -0.0081 -0.0081 0.9999
vn -0.0127 -0.0082 0.9999
vn -0.6870 0.7266 -0.0000
vn -0.6833 0.7301 -0.0000
vn 0.0442 0.9990 0.0000
vn 0.0376 0.9993 0.0000
vn -0.9995 0.0311 -0.0000
vn -0.7307 -0.6827 -0.0000
vn -0.7273 -0.6863 -0.0000
vn -0.0210 -0.9998 -0.0000
vn -0.0143 -0.9999 -0.0000
vn 0.9998 -0.0209 0.0000
vn 0.7008 -0.7134 0.0000
vn 0.6975 -0.7166 0.0000
vn 0.7314 0.6819 0.0000
vn 0.7345 0.6786 0.0000
vn -0.0000 -0.0000 -1.0000
vn -0.0000 -0.0001 -1.0000
vn -0.0001 -0.0000 -1.0000
vn 0.0001 0.0002 -1.0000
vn 0.0125 0.0055 0.9999
vn 0.0072 0.0029 1.0000
vn 0.0031 0.0006 1.0000
vn -0.0072 -0.0029 -1.0000
vn -0.0074 -0.0054 -1.0000
vn 0.0011 0.0004 1.0000
vn -0.0000 -0.0000 1.0000
vn 0.0001 0.0001 1.0000
vn 0.0009 0.0006 1.0000
vn -0.0049 -0.0028 -1.0000
vn -0.0008 -0.0008 -1.0000
vn 0.0050 0.0026 1.0000
vn 0.0074 0.0054 1.0000
vn -0.0014 0.0000 -1.0000
vn -0.0031 -0.0005 -1.0000
vn 0.0012 -0.0001 1.0000
vn 0.0001 -0.0001 1.0000
vn -0.7333 -0.6799 -0.0000
vn -0.0417 -0.9991 -0.0000
vn -0.0424 -0.9991 -0.0000
vn -0.9997 0.0225 -0.0000
vn -0.9997 0.0224 -0.0000
vn -0.6995 0.7146 -0.0000
vn -0.6999 0.7142 -0.0000
vn 0.0135 0.9999 0.0000
vn 0.0123 0.9999 0.0000
vn 0.9993 -0.0382 0.0000
vn 0.7309 0.6825 0.0000
vn 0.7304 0.6831 0.0000
vn 0.9992 -0.0388 0.0000
vn 0.6832 -0.7302 0.0000
vn 0.6823 -0.7311 0.0000
vn -0.1590 0.0480 -0.9861
vn -0.1825 0.0363 -0.9825
vn 0.1774 -0.0409 0.9833
vn 0.1671 -0.0573 0.9843
vn 0.9999 -0.0149 0.0000
vn -0.9993 0.0361 0.0000
vn -0.9993 0.0361 -0.0000
vn 0.0171 0.0362 -0.9992
vn -0.0025 0.0603 -0.9982
vn -0.0040 0.0590 -0.9982
vn -0.0156 0.0250 -0.9996
vn -0.0897 -0.0516 0.9946
vn 0.1144 0.0544 -0.9919
vn -0.0486 -0.0595 0.9970
vn -0.1969 0.0251 -0.9801
vn 0.0322 -0.0392 0.9987
vn 0.0039 -0.0619 0.9981
vn 0.0040 -0.0606 0.9982
vn 0.0183 -0.0171 0.9997
vn -0.1247 0.0519 -0.9908
vn -0.1298 0.0457 -0.9905
vn -0.1234 0.0156 -0.9922
vn -0.1215 0.0177 -0.9924
vn 0.1290 -0.0460 0.9906
vn 0.1288 -0.0502 0.9904
vn 0.1230 -0.0169 0.9923
vn 0.1240 -0.0139 0.9922
vn 0.9997 0.0258 0.0032
vn 0.9997 0.0257 0.0032
vn 0.9998 0.0202 0.0026
vn 0.9998 0.0200 0.0026
vn -0.9994 0.0348 0.0003
vn -0.9994 0.0344 0.0003
vn -0.9996 0.0286 0.0000
vn -0.9996 0.0286 -0.0000
vn -0.0057 -0.0191 -0.9998
vn -0.0170 -0.0173 -0.9997
vn -0.0231 -0.0306 -0.9993
vn -0.0033 -0.0317 -0.9995
vn -0.0418 0.0112 0.9991
vn -0.0279 0.0138 0.9995
vn -0.0522 -0.0048 0.9986
vn 0.0733 0.0174 -0.9972
vn 0.0500 0.0210 -0.9985
vn 0.0501 0.0008 -0.9987
vn -0.0347 -0.0311 0.9989
vn -0.0455 -0.0194 0.9988
vn -0.0363 -0.0217 0.9991
vn -0.1414 0.0232 -0.9897
vn -0.1284 0.0102 -0.9917
vn 0.0038 0.0169 0.9999
vn 0.0048 0.0087 1.0000
vn -0.0052 0.0278 0.9996
vn 0.0017 0.0323 0.9995
vn 0.0301 0.0151 -0.9994
vn 0.0377 0.0257 -0.9990
vn -0.1211 0.0058 -0.9926
vn -0.1203 0.0068 -0.9927
vn 0.1207 -0.0073 0.9927
vn 0.1208 -0.0061 0.9927
vn -0.0083 -0.0087 -0.9999
vn -0.0009 -0.0005 -1.0000
vn 0.0050 0.0071 -1.0000
vn -0.0070 -0.0028 1.0000
vn -0.0012 0.0005 1.0000
vn -0.0042 -0.0072 1.0000
vn 0.0011 0.0053 -1.0000
vn 0.0049 0.0124 -0.9999
vn 0.0034 0.0143 -0.9999
vn -0.0046 -0.0174 0.9998
vn -0.0040 -0.0124 0.9999
vn -0.0024 -0.0144 0.9999
vn 0.0008 -0.0285 -0.9996
vn 0.0354 -0.0260 -0.9990
vn 0.0315 -0.0156 -0.9994
vn 0.0001 -0.0160 -0.9999
vn -0.0002 0.0049 1.0000
vn -0.0296 0.0047 0.9996
vn -0.0311 0.0154 0.9994
vn -0.0006 0.0159 0.9999
vn -0.0385 0.0005 -0.9993
vn -0.0368 0.0010 -0.9993
vn -0.0128 0.0075 0.9999
vn 0.0478 0.0054 0.9988
vn 0.0470 0.0196 0.9987
vn -0.0107 0.0203 0.9997
vn 0.0124 -0.0071 -0.9999
vn 0.0705 -0.0070 -0.9975
vn 0.0672 -0.0195 -0.9975
vn 0.0103 -0.0207 -0.9997
vn -0.0336 -0.0041 -0.9994
vn -0.0348 -0.0147 -0.9993
vn 0.0363 0.0278 0.9990
vn 0.0348 0.0147 0.9993
vn 0.0346 0.9994 0.0002
vn 0.0348 0.9994 0.0002
vn -0.0480 0.0014 -0.9988
vn -0.0444 -0.0280 -0.9986
vn -0.0466 -0.0185 -0.9987
vn -0.0375 -0.0349 -0.9987
vn -0.0388 -0.0331 -0.9987
vn -0.0240 -0.0012 -0.9997
vn -0.0265 -0.0109 -0.9996
vn -0.0293 -0.0213 -0.9993
vn -0.0374 -0.0225 -0.9990
vn -0.0365 0.0005 -0.9993
vn -0.0359 0.0010 -0.9994
vn -0.0019 0.0302 0.9995
vn 0.0086 0.0259 0.9996
vn 0.0071 0.0121 0.9999
vn -0.0132 0.0201 0.9997
vn 0.0313 0.0304 0.9990
vn 0.0233 0.0271 0.9994
vn 0.0334 -0.0008 0.9994
vn 0.0334 -0.0009 0.9994
vn 0.0806 -0.0023 0.9967
vn 0.0766 0.0151 0.9969
vn 0.0679 0.0169 0.9975
vn 0.0543 0.0292 0.9981
vn 0.0490 0.0295 0.9984
vn -0.0379 -0.0085 -0.9992
vn 0.0336 0.0088 0.9994
vn -0.0411 -0.0286 -0.9987
vn 0.0585 0.0249 0.9980
vn -0.0213 -0.0003 -0.9998
vn -0.0187 -0.0368 0.9991
vn -0.0221 0.0076 0.9997
vn -0.0019 -0.0046 1.0000
vn 0.0112 -0.0197 0.9997
vn -0.0270 -0.0123 -0.9996
vn 0.0169 0.0177 0.9997
vn -0.0363 -0.0278 -0.9990
vn 0.0336 0.0041 0.9994
vn -0.0482 -0.0058 -0.9988
vn 0.0801 0.0024 0.9968
vn 0.0022 -0.0100 -0.9999
vn -0.0008 -0.0016 -1.0000
vn -0.0022 0.0100 0.9999
vn -0.0082 0.0165 0.9998
vn 0.0632 -0.0018 -0.9980
vn 0.0569 -0.0117 -0.9983
vn 0.0475 -0.0091 -0.9988
vn 0.0279 -0.0243 -0.9993
vn 0.0173 -0.0247 -0.9995
vn -0.0165 -0.0419 -0.9990
vn -0.0114 -0.0248 -0.9996
vn -0.0194 -0.0064 -0.9998
vn -0.0260 -0.0270 -0.9993
vn 0.0205 -0.0309 -0.9993
vn 0.0073 -0.0223 -0.9997
vn 0.0291 -0.0008 -0.9996
vn 0.0463 -0.0006 0.9989
vn 0.0422 -0.0020 0.9991
vn 0.0279 0.0117 0.9995
vn 0.0116 0.0094 0.9999
vn 0.0013 -0.0000 1.0000
vn 0.0012 -0.0000 1.0000
vn -0.0713 0.0020 0.9974
vn -0.0579 0.0269 0.9980
vn -0.0660 0.0169 0.9977
vn -0.0432 0.0326 0.9985
vn 0.0276 -0.0094 -0.9996
vn 0.0026 0.0060 1.0000
vn 0.0375 -0.0194 -0.9991
vn -0.0490 0.0256 0.9985
vn -0.0312 0.0380 -0.9988
vn -0.0486 0.0077 -0.9988
vn -0.0327 0.0028 -0.9995
vn -0.0191 0.0156 -0.9997
vn 0.0467 0.0001 0.9989
vn -0.0050 -0.0132 -0.9999
vn 0.0363 -0.0029 0.9993
vn 0.0082 -0.0165 -0.9998
vn 0.0008 0.0016 1.0000
vn 0.0624 -0.0040 -0.9980
vn -0.0708 0.0081 0.9975
vn -0.9249 -0.3800 0.0129
vn -0.9250 -0.3797 0.0119
vn -0.6832 -0.7301 0.0168
vn -0.6826 -0.7306 0.0167
vn -0.6955 0.7183 0.0191
vn -0.6934 0.7203 0.0192
vn -0.9486 0.3161 0.0138
vn -0.9485 0.3165 0.0127
vn 0.9725 0.2326 0.0120
vn 0.9726 0.2322 0.0107
vn 0.7646 0.6442 0.0189
vn 0.7666 0.6419 0.0191
vn 0.3305 -0.9438 0.0105
vn 0.3302 -0.9439 0.0095
vn 0.6772 -0.7357 0.0148
vn 0.6768 -0.7360 0.0148
vn -0.5953 0.6039 0.5299
vn -0.0134 0.7484 0.6631
vn -0.0175 0.9969 -0.0762
vn -0.7203 0.6919 -0.0488
vn -0.7006 0.0482 0.7120
vn -0.9999 -0.0147 -0.0043
vn -0.0036 0.0723 0.9974
vn 0.5673 0.6285 0.5321
vn 0.7028 0.7091 -0.0562
vn 0.7047 0.0617 0.7068
vn 0.9999 0.0101 -0.0051
vn 0.5660 0.5436 -0.6198
vn -0.0068 0.6629 -0.7487
vn 0.7234 -0.0292 -0.6898
vn 0.0014 0.0994 -0.9950
vn -0.0031 0.2624 -0.9650
vn 0.2530 0.1887 -0.9489
vn 0.1416 0.0835 -0.9864
vn -0.5874 0.5269 -0.6143
vn -0.3347 -0.0843 -0.9386
vn -0.7175 -0.0633 -0.6937
vn -0.2533 0.1861 -0.9493
vn -0.5697 -0.5420 0.6178
vn -0.7003 -0.7125 0.0430
vn 0.0153 -0.9977 0.0654
vn 0.0133 -0.6437 0.7652
vn 0.5916 -0.5250 0.6119
vn 0.7225 -0.6898 0.0473
vn 0.5856 -0.6071 -0.5371
vn 0.0070 -0.7672 -0.6413
vn 0.3301 -0.0658 -0.9417
vn 0.2575 -0.3130 -0.9142
vn -0.5765 -0.6189 -0.5335
vn 0.0038 -0.2337 -0.9723
vn -0.0194 -0.4076 -0.9130
vn -0.2560 -0.3271 -0.9096
vn -0.1603 -0.2335 -0.9590
vn 0.6258 0.7776 -0.0600
vn -0.0080 0.9967 -0.0802
vn -0.0030 0.9975 -0.0700
vn 0.7060 0.7065 -0.0489
vn -0.7717 0.6340 -0.0502
vn -1.0000 -0.0043 0.0019
vn -0.7022 0.7100 -0.0523
vn -0.6887 0.7227 -0.0580
vn 0.0314 -0.9963 0.0806
vn 0.0307 -0.9963 0.0809
vn -0.6954 -0.7164 0.0558
vn -0.7054 -0.7067 0.0546
vn 0.7455 -0.6643 0.0539
vn 0.8804 0.4738 -0.0193
vn 0.9997 0.0258 -0.0005
vn 0.7381 -0.6725 0.0532
vn 0.0065 0.9974 -0.0714
vn 0.7094 0.7031 -0.0504
vn -1.0000 0.0036 -0.0003
vn -0.6975 0.7147 -0.0513
vn 0.0236 -0.9972 0.0713
vn -0.6991 -0.7132 0.0512
vn 0.9998 0.0189 -0.0013
vn 0.7330 -0.6785 0.0485
vn 0.0047 0.9919 -0.1269
vn 0.7073 0.7006 -0.0942
vn -0.9981 -0.0086 -0.0604
vn -0.6991 0.7088 -0.0936
vn 0.0296 -0.9995 0.0113
vn -0.6940 -0.7199 0.0101
vn 0.9979 0.0149 -0.0624
vn 0.7353 -0.6778 0.0057
vn 0.0024 -0.9848 -0.1734
vn 0.0024 -0.9848 -0.1737
vn 0.0025 -0.9848 -0.1735
vn 0.0025 -0.9849 -0.1730
vn -0.1697 -0.0780 -0.9824
vn -0.1468 0.0894 -0.9851
vn 0.1645 -0.0793 -0.9832
vn 0.1680 -0.2240 -0.9600
vn 0.0028 0.9843 -0.1765
vn 0.7035 0.6977 -0.1350
vn -0.9933 -0.0167 -0.1145
vn -0.6980 0.7031 -0.1359
vn 0.0246 -0.9988 -0.0420
vn -0.6966 -0.7169 -0.0303
vn 0.9930 0.0081 -0.1180
vn 0.7319 -0.6805 -0.0346
vn -0.2806 0.9597 0.0145
vn -0.2803 0.9598 0.0136
vn -0.3196 -0.9475 0.0109
vn -0.3199 -0.9474 0.0098
vn 0.3991 0.9168 0.0141
vn 0.3994 0.9167 0.0132
vn 0.9122 -0.4097 0.0111
vn 0.9120 -0.4100 0.0101
vn -0.0431 0.0011 -0.9991
vn -0.0412 0.0031 -0.9991
vn -0.1106 0.0126 -0.9938
vn -0.1257 0.0129 -0.9920
vn -0.0267 -0.0053 -0.9996
vn -0.0125 -0.0163 -0.9998
vn -0.0897 -0.0006 -0.9960
vn -0.0975 0.0042 -0.9952
vn -0.0012 0.0000 -1.0000
vn -0.0842 0.0024 -0.9964
vn -0.0632 0.0018 0.9980
vn 0.0199 -0.0006 0.9998
vn -0.0574 0.0077 0.9983
vn -0.0470 0.0146 0.9988
vn 0.0269 0.0022 0.9996
vn 0.0225 -0.0006 0.9997
vn -0.0255 0.0239 0.9994
vn -0.0160 0.0275 0.9995
vn 0.0634 0.0108 0.9979
vn 0.0484 0.0044 0.9988
vn -0.0025 -0.0037 -1.0000
vn -0.0357 0.0141 0.9993
vn 0.0352 -0.0005 0.9994
vn -0.0440 0.0001 -0.9990
vn -0.1333 0.0113 -0.9910
vn -0.0352 -0.0008 -0.9994
vn -0.1017 0.0063 -0.9948
vn -0.0624 0.0053 0.9980
vn 0.0206 0.0001 0.9998
vn 0.0078 1.0000 0.0061
vn 0.0046 1.0000 0.0061
vn 0.0228 0.9997 0.0001
vn 0.0237 0.9997 0.0000
vn -0.1254 0.0032 -0.9921
vn -0.0842 0.0023 -0.9964
vn -0.0823 -0.0019 -0.9966
vn 0.1254 -0.0032 0.9921
vn 0.1204 -0.0105 0.9927
vn 0.0756 0.0032 0.9971
vn 0.0823 0.0019 0.9966
vn -0.0777 0.0022 -0.9970
vn -0.0199 0.0006 -0.9998
vn -0.0782 0.0055 -0.9969
vn -0.0279 0.0008 -0.9996
vn -0.0231 -0.0012 -0.9997
vn -0.0953 0.0151 -0.9953
vn -0.1090 0.0142 -0.9939
vn -0.0630 -0.0065 -0.9980
vn -0.0480 -0.0051 -0.9988
vn 0.1838 -0.0330 0.9824
vn 0.1616 -0.0391 0.9861
vn 0.1146 -0.0145 0.9933
vn 0.1291 -0.0109 0.9916
vn 0.1283 -0.0077 0.9917
vn 0.1264 -0.0039 0.9920
vn 0.0889 -0.0025 0.9960
vn 0.0945 -0.0009 0.9955
vn 0.1262 -0.0036 0.9920
vn 0.0842 -0.0024 0.9964
vn 0.0855 -0.0012 0.9963
vn -0.0841 0.0088 -0.9964
vn -0.0352 -0.0050 -0.9994
vn 0.1937 -0.0218 0.9808
vn 0.1353 -0.0068 0.9908
vn 0.1389 -0.0279 0.9899
vn 0.1021 -0.0104 0.9947
vn -0.1204 0.0104 -0.9927
vn -0.0756 -0.0032 -0.9971
vn 0.0842 -0.0023 0.9964
vn -0.0393 -0.0114 -0.9992
vn -0.0364 -0.0032 -0.9993
vn -0.0133 -0.0018 -0.9999
vn -0.0173 -0.0060 -0.9998
vn 0.0393 0.0114 0.9992
vn 0.0437 0.0250 0.9987
vn 0.0237 0.0184 0.9995
vn 0.0173 0.0060 0.9998
vn 0.0514 0.9987 0.0020
vn 0.0511 0.9987 0.0020
vn 0.0460 0.9989 0.0049
vn 0.0464 0.9989 0.0049
vn -0.0807 0.0023 -0.9967
vn -0.0689 0.0019 -0.9976
vn -0.0759 -0.0117 -0.9970
vn -0.0677 -0.0219 -0.9975
vn -0.0542 -0.0103 -0.9985
vn -0.0638 -0.0032 -0.9980
vn -0.0533 -0.0290 -0.9982
vn -0.0484 -0.0308 -0.9984
vn -0.0319 -0.0226 -0.9992
vn -0.0398 -0.0217 -0.9990
vn 0.0340 0.0039 0.9994
vn 0.0296 0.0100 0.9995
vn 0.0122 0.0104 0.9999
vn -0.0020 -0.0102 0.9999
vn 0.0313 0.0185 0.9993
vn 0.0373 0.0247 0.9990
vn 0.0139 0.0211 0.9997
vn 0.0099 0.0183 0.9998
vn 0.0359 -0.0010 0.9994
vn 0.0113 -0.0008 0.9999
vn 0.0108 0.0014 0.9999
vn 0.0376 0.0091 0.9993
vn 0.0132 0.0124 0.9998
vn -0.0587 -0.0212 -0.9981
vn -0.0457 -0.0124 -0.9989
vn 0.0319 -0.0022 0.9995
vn -0.0198 -0.0303 0.9993
vn 0.0284 0.0121 0.9995
vn 0.0130 0.0162 0.9998
vn -0.0437 -0.0250 -0.9987
vn -0.0237 -0.0184 -0.9995
vn 0.0364 0.0032 0.9993
vn 0.0133 0.0018 0.9999
vn -0.0804 -0.0035 -0.9968
vn -0.0683 -0.0012 -0.9977
vn 0.0723 0.0315 -0.9969
vn 0.0574 0.0021 -0.9983
vn -0.0088 -0.0076 -0.9999
vn 0.0036 0.0141 -0.9999
vn 0.0242 -0.0174 -0.9996
vn 0.0165 -0.0168 -0.9997
vn -0.0142 -0.0202 -0.9997
vn -0.0115 -0.0188 -0.9998
vn 0.0124 -0.0033 -0.9999
vn -0.0111 0.0010 -0.9999
vn -0.0104 -0.0024 -0.9999
vn 0.0391 -0.0011 0.9992
vn 0.0689 -0.0019 0.9976
vn 0.0364 0.0005 0.9993
vn 0.0326 0.0013 0.9995
vn 0.0546 0.0057 0.9985
vn 0.0633 0.0071 0.9980
vn 0.0230 0.0132 0.9996
vn 0.0322 0.0204 0.9993
vn 0.0403 0.0222 0.9989
vn 0.0114 -0.0144 -0.9998
vn -0.0127 -0.0113 -0.9999
vn 0.0294 0.0095 0.9995
vn 0.0471 0.0161 0.9988
vn 0.0823 0.0449 -0.9956
vn 0.0195 0.0169 -0.9997
vn 0.0380 -0.0072 -0.9993
vn -0.0121 -0.0170 -0.9998
vn 0.0683 -0.0000 0.9977
vn 0.0023 -0.9848 -0.1737
vn 0.0024 -0.9850 -0.1727
vn 0.0024 -0.9849 -0.1730
vn 0.0023 -0.9848 -0.1735
# 717 vertex normals

vt 0.4959 0.3296 0.0000
vt 0.4650 0.3296 0.0000
vt 0.4650 0.2975 0.0000
vt 0.4959 0.2975 0.0000
vt 0.5272 0.3296 0.0000
vt 0.4964 0.3296 0.0000
vt 0.4964 0.2976 0.0000
vt 0.5273 0.2975 0.0000
vt 0.5393 0.7451 0.0000
vt 0.5392 0.7458 0.0000
vt 0.5080 0.7480 0.0000
vt 0.5080 0.7473 0.0000
vt 0.3175 0.7879 0.0000
vt 0.3175 0.7886 0.0000
vt 0.2855 0.7886 0.0000
vt 0.2855 0.7879 0.0000
vt 0.0496 0.7598 0.0000
vt 0.0496 0.7605 0.0000
vt 0.0191 0.7630 0.0000
vt 0.0191 0.7624 0.0000
vt 0.4959 0.3939 0.0000
vt 0.4963 0.3939 0.0000
vt 0.4963 0.4261 0.0000
vt 0.4959 0.4261 0.0000
vt 0.0850 0.3943 0.0000
vt 0.1238 0.3943 0.0000
vt 0.1238 0.4265 0.0000
vt 0.0850 0.4265 0.0000
vt 0.9074 0.3304 0.0000
vt 0.8686 0.3303 0.0000
vt 0.8687 0.2982 0.0000
vt 0.9075 0.2983 0.0000
vt 0.7636 0.7536 0.0000
vt 0.7636 0.7543 0.0000
vt 0.7307 0.7537 0.0000
vt 0.7307 0.7531 0.0000
vt 0.2936 0.7432 0.0000
vt 0.2937 0.7439 0.0000
vt 0.2607 0.7451 0.0000
vt 0.2607 0.7444 0.0000
vt 0.1163 0.7497 0.0000
vt 0.1164 0.7503 0.0000
vt 0.0799 0.7562 0.0000
vt 0.0797 0.7553 0.0000
vt 0.0227 0.3944 0.0000
vt 0.0537 0.3944 0.0000
vt 0.0537 0.4266 0.0000
vt 0.0227 0.4266 0.0000
vt 0.9697 0.3305 0.0000
vt 0.9387 0.3304 0.0000
vt 0.9388 0.2983 0.0000
vt 0.9697 0.2984 0.0000
vt 0.9500 0.7512 0.0000
vt 0.9500 0.7519 0.0000
vt 0.9187 0.7511 0.0000
vt 0.9188 0.7504 0.0000
vt 0.2732 0.3941 0.0000
vt 0.3062 0.3941 0.0000
vt 0.3062 0.4263 0.0000
vt 0.2732 0.4263 0.0000
vt 0.7192 0.3300 0.0000
vt 0.6861 0.3299 0.0000
vt 0.6862 0.2978 0.0000
vt 0.7193 0.2979 0.0000
vt 0.5790 0.7433 0.0000
vt 0.5790 0.7440 0.0000
vt 0.4831 0.7609 0.0000
vt 0.4831 0.7616 0.0000
vt 0.4520 0.7573 0.0000
vt 0.4520 0.7567 0.0000
vt 0.4958 0.6660 0.0000
vt 0.4646 0.6666 0.0000
vt 0.4650 0.6345 0.0000
vt 0.4957 0.6340 0.0000
vt 0.4959 0.5242 0.0000
vt 0.4653 0.5242 0.0000
vt 0.4652 0.4865 0.0000
vt 0.4959 0.4865 0.0000
vt 0.4959 0.4566 0.0000
vt 0.4652 0.4566 0.0000
vt 0.4651 0.4261 0.0000
vt 0.4646 0.0306 0.0000
vt 0.4959 0.0310 0.0000
vt 0.4959 0.0627 0.0000
vt 0.4647 0.0625 0.0000
vt 0.4649 0.1986 0.0000
vt 0.4958 0.1986 0.0000
vt 0.4958 0.2351 0.0000
vt 0.4649 0.2350 0.0000
vt 0.4649 0.2663 0.0000
vt 0.4959 0.2663 0.0000
vt 0.5274 0.6666 0.0000
vt 0.4964 0.6660 0.0000
vt 0.4962 0.6341 0.0000
vt 0.5270 0.6345 0.0000
vt 0.5268 0.5242 0.0000
vt 0.4963 0.5242 0.0000
vt 0.4963 0.4865 0.0000
vt 0.5269 0.4865 0.0000
vt 0.5270 0.4567 0.0000
vt 0.4963 0.4566 0.0000
vt 0.5270 0.4261 0.0000
vt 0.4966 0.0309 0.0000
vt 0.5278 0.0306 0.0000
vt 0.5278 0.0625 0.0000
vt 0.4966 0.0627 0.0000
vt 0.4965 0.1986 0.0000
vt 0.5275 0.1986 0.0000
vt 0.5274 0.2351 0.0000
vt 0.4964 0.2351 0.0000
vt 0.4964 0.2663 0.0000
vt 0.5274 0.2663 0.0000
vt 0.6484 0.7948 0.0000
vt 0.6484 0.7954 0.0000
vt 0.6170 0.7939 0.0000
vt 0.6170 0.7932 0.0000
vt 0.5112 0.7904 0.0000
vt 0.5112 0.7911 0.0000
vt 0.4741 0.7906 0.0000
vt 0.4741 0.7899 0.0000
vt 0.0191 0.7886 0.0000
vt 0.0191 0.7879 0.0000
vt 0.0510 0.7879 0.0000
vt 0.0510 0.7886 0.0000
vt 0.1868 0.7886 0.0000
vt 0.1868 0.7879 0.0000
vt 0.2232 0.7879 0.0000
vt 0.2232 0.7886 0.0000
vt 0.0845 0.0310 0.0000
vt 0.1233 0.0310 0.0000
vt 0.1234 0.0630 0.0000
vt 0.0846 0.0630 0.0000
vt 0.0847 0.1990 0.0000
vt 0.1233 0.1987 0.0000
vt 0.1236 0.2354 0.0000
vt 0.0848 0.2355 0.0000
vt 0.0848 0.2667 0.0000
vt 0.1236 0.2667 0.0000
vt 0.1237 0.2979 0.0000
vt 0.0848 0.2979 0.0000
vt 0.2717 0.6686 0.0000
vt 0.2405 0.6686 0.0000
vt 0.2405 0.6355 0.0000
vt 0.2726 0.6677 0.0000
vt 0.2733 0.5244 0.0000
vt 0.2403 0.5244 0.0000
vt 0.2403 0.4867 0.0000
vt 0.2733 0.4867 0.0000
vt 0.2732 0.4568 0.0000
vt 0.2403 0.4569 0.0000
vt 0.2402 0.4264 0.0000
vt 0.9005 0.6632 0.0000
vt 0.8635 0.6653 0.0000
vt 0.8631 0.6329 0.0000
vt 0.9013 0.6311 0.0000
vt 0.9061 0.5243 0.0000
vt 0.8675 0.5244 0.0000
vt 0.8683 0.4872 0.0000
vt 0.9070 0.4872 0.0000
vt 0.9071 0.4574 0.0000
vt 0.8683 0.4573 0.0000
vt 0.8684 0.4268 0.0000
vt 0.9072 0.4269 0.0000
vt 0.7198 0.0310 0.0000
vt 0.7528 0.0310 0.0000
vt 0.7527 0.0630 0.0000
vt 0.7197 0.0629 0.0000
vt 0.7195 0.1990 0.0000
vt 0.7524 0.1990 0.0000
vt 0.7524 0.2355 0.0000
vt 0.7194 0.2354 0.0000
vt 0.7193 0.2667 0.0000
vt 0.7523 0.2667 0.0000
vt 0.7522 0.2979 0.0000
vt 0.0222 0.0311 0.0000
vt 0.0532 0.0311 0.0000
vt 0.0533 0.0630 0.0000
vt 0.0223 0.0631 0.0000
vt 0.0225 0.1991 0.0000
vt 0.0534 0.1991 0.0000
vt 0.0535 0.2355 0.0000
vt 0.0225 0.2356 0.0000
vt 0.0915 0.6629 0.0000
vt 0.0610 0.6618 0.0000
vt 0.0601 0.6299 0.0000
vt 0.0908 0.6308 0.0000
vt 0.0861 0.5240 0.0000
vt 0.0548 0.5240 0.0000
vt 0.0539 0.4869 0.0000
vt 0.0851 0.4869 0.0000
vt 0.9616 0.6618 0.0000
vt 0.9310 0.6622 0.0000
vt 0.9319 0.6303 0.0000
vt 0.9631 0.6303 0.0000
vt 0.9685 0.5245 0.0000
vt 0.9373 0.5244 0.0000
vt 0.9383 0.4873 0.0000
vt 0.9693 0.4874 0.0000
vt 0.9080 0.0313 0.0000
vt 0.9393 0.0314 0.0000
vt 0.9392 0.0634 0.0000
vt 0.9079 0.0633 0.0000
vt 0.9077 0.1994 0.0000
vt 0.9390 0.1994 0.0000
vt 0.9389 0.2359 0.0000
vt 0.9076 0.2358 0.0000
vt 0.2727 0.0308 0.0000
vt 0.3058 0.0308 0.0000
vt 0.3058 0.0627 0.0000
vt 0.2727 0.0628 0.0000
vt 0.2729 0.1988 0.0000
vt 0.3060 0.1988 0.0000
vt 0.3060 0.2352 0.0000
vt 0.2730 0.2353 0.0000
vt 0.2730 0.2665 0.0000
vt 0.3060 0.2665 0.0000
vt 0.3061 0.2977 0.0000
vt 0.2730 0.2977 0.0000
vt 0.4254 0.6678 0.0000
vt 0.4256 0.6351 0.0000
vt 0.4255 0.5242 0.0000
vt 0.4255 0.4865 0.0000
vt 0.4254 0.4567 0.0000
vt 0.4254 0.4261 0.0000
vt 0.7167 0.6688 0.0000
vt 0.6855 0.6687 0.0000
vt 0.6855 0.6356 0.0000
vt 0.7176 0.6679 0.0000
vt 0.7188 0.5246 0.0000
vt 0.6858 0.5245 0.0000
vt 0.6858 0.4868 0.0000
vt 0.7189 0.4869 0.0000
vt 0.7189 0.4570 0.0000
vt 0.6859 0.4570 0.0000
vt 0.6859 0.4264 0.0000
vt 0.7190 0.4265 0.0000
vt 0.5676 0.0306 0.0000
vt 0.5675 0.0626 0.0000
vt 0.5672 0.1987 0.0000
vt 0.5672 0.2351 0.0000
vt 0.5671 0.2664 0.0000
vt 0.5670 0.2976 0.0000
vt 0.0849 0.3300 0.0000
vt 0.0536 0.3301 0.0000
vt 0.0536 0.2980 0.0000
vt 0.9073 0.3947 0.0000
vt 0.9386 0.3947 0.0000
vt 0.9385 0.4269 0.0000
vt 0.9809 0.7524 0.0000
vt 0.9809 0.7531 0.0000
vt 0.0846 0.0919 0.0000
vt 0.0533 0.0920 0.0000
vt 0.0309 0.6950 0.0000
vt 0.0304 0.6614 0.0000
vt 0.0615 0.6955 0.0000
vt 0.0289 0.6299 0.0000
vt 0.0272 0.5954 0.0000
vt 0.0584 0.5953 0.0000
vt 0.9001 0.6965 0.0000
vt 0.9305 0.6959 0.0000
vt 0.9028 0.5961 0.0000
vt 0.9337 0.5956 0.0000
vt 0.9703 0.0315 0.0000
vt 0.9702 0.0634 0.0000
vt 0.9702 0.0924 0.0000
vt 0.9392 0.0923 0.0000
vt 0.4444 0.7904 0.0000
vt 0.4139 0.7901 0.0000
vt 0.4139 0.7895 0.0000
vt 0.4444 0.7897 0.0000
vt 0.0228 0.4572 0.0000
vt 0.0496 0.4530 0.0000
vt 0.0480 0.4571 0.0000
vt 0.9345 0.4531 0.0000
vt 0.9329 0.4572 0.0000
vt 0.0850 0.4571 0.0000
vt 0.0577 0.4610 0.0000
vt 0.0592 0.4571 0.0000
vt 0.9425 0.4611 0.0000
vt 0.9441 0.4572 0.0000
vt 0.9694 0.4575 0.0000
vt 0.0228 0.4870 0.0000
vt 0.0496 0.4610 0.0000
vt 0.0538 0.4627 0.0000
vt 0.9344 0.4611 0.0000
vt 0.9383 0.4628 0.0000
vt 0.0576 0.4530 0.0000
vt 0.0537 0.4514 0.0000
vt 0.9695 0.4270 0.0000
vt 0.9425 0.4531 0.0000
vt 0.9384 0.4515 0.0000
vt 0.7820 0.8364 0.0000
vt 0.7820 0.8371 0.0000
vt 0.7776 0.8371 0.0000
vt 0.7776 0.8364 0.0000
vt 0.7864 0.8364 0.0000
vt 0.7864 0.8370 0.0000
vt 0.7906 0.8364 0.0000
vt 0.7906 0.8371 0.0000
vt 0.7951 0.8364 0.0000
vt 0.7951 0.8371 0.0000
vt 0.7690 0.8365 0.0000
vt 0.7690 0.8372 0.0000
vt 0.7648 0.8372 0.0000
vt 0.7648 0.8365 0.0000
vt 0.7734 0.8365 0.0000
vt 0.7734 0.8372 0.0000
vt 0.2544 0.7886 0.0000
vt 0.2544 0.7879 0.0000
vt 0.0225 0.2668 0.0000
vt 0.0481 0.2668 0.0000
vt 0.0497 0.2708 0.0000
vt 0.0226 0.2980 0.0000
vt 0.9075 0.2671 0.0000
vt 0.9331 0.2671 0.0000
vt 0.9347 0.2712 0.0000
vt 0.0593 0.2668 0.0000
vt 0.0578 0.2628 0.0000
vt 0.9699 0.2359 0.0000
vt 0.9698 0.2672 0.0000
vt 0.9443 0.2671 0.0000
vt 0.9427 0.2632 0.0000
vt 0.0535 0.2611 0.0000
vt 0.0496 0.2628 0.0000
vt 0.9390 0.2617 0.0000
vt 0.9346 0.2632 0.0000
vt 0.0535 0.2724 0.0000
vt 0.0576 0.2708 0.0000
vt 0.9388 0.2728 0.0000
vt 0.9426 0.2712 0.0000
vt 0.7949 0.8236 0.0000
vt 0.7912 0.8236 0.0000
vt 0.7912 0.8228 0.0000
vt 0.7949 0.8228 0.0000
vt 0.7684 0.8238 0.0000
vt 0.7645 0.8238 0.0000
vt 0.7645 0.8231 0.0000
vt 0.7684 0.8230 0.0000
vt 0.7722 0.8237 0.0000
vt 0.7722 0.8229 0.0000
vt 0.7760 0.8236 0.0000
vt 0.7760 0.8229 0.0000
vt 0.7833 0.8236 0.0000
vt 0.7796 0.8236 0.0000
vt 0.7796 0.8229 0.0000
vt 0.7833 0.8229 0.0000
vt 0.7873 0.8236 0.0000
vt 0.7873 0.8229 0.0000
vt 0.4957 0.6983 0.0000
vt 0.4644 0.6974 0.0000
vt 0.5275 0.6975 0.0000
vt 0.4963 0.6983 0.0000
vt 0.6820 0.7968 0.0000
vt 0.6820 0.7975 0.0000
vt 0.2726 0.6695 0.0000
vt 0.2735 0.6704 0.0000
vt 0.2735 0.6995 0.0000
vt 0.2405 0.6995 0.0000
vt 0.8633 0.6981 0.0000
vt 0.0919 0.6961 0.0000
vt 0.9611 0.6954 0.0000
vt 0.4253 0.6989 0.0000
vt 0.7176 0.6697 0.0000
vt 0.7185 0.6706 0.0000
vt 0.7185 0.6997 0.0000
vt 0.6855 0.6996 0.0000
vt 0.4959 0.0916 0.0000
vt 0.4647 0.0915 0.0000
vt 0.5277 0.0915 0.0000
vt 0.4966 0.0916 0.0000
vt 0.0799 0.7879 0.0000
vt 0.0799 0.7886 0.0000
vt 0.1234 0.0919 0.0000
vt 0.7526 0.0919 0.0000
vt 0.7197 0.0919 0.0000
vt 0.0223 0.0920 0.0000
vt 0.9079 0.0922 0.0000
vt 0.3058 0.0917 0.0000
vt 0.2728 0.0917 0.0000
vt 0.5674 0.0916 0.0000
vt 0.0846 0.1271 0.0000
vt 0.0533 0.1272 0.0000
vt 0.9701 0.1276 0.0000
vt 0.9391 0.1275 0.0000
vt 0.4957 0.5984 0.0000
vt 0.4653 0.5985 0.0000
vt 0.4653 0.5619 0.0000
vt 0.4958 0.5619 0.0000
vt 0.5267 0.5986 0.0000
vt 0.4961 0.5984 0.0000
vt 0.4962 0.5619 0.0000
vt 0.5268 0.5619 0.0000
vt 0.5824 0.7921 0.0000
vt 0.5824 0.7927 0.0000
vt 0.5478 0.7919 0.0000
vt 0.5478 0.7912 0.0000
vt 0.2734 0.5988 0.0000
vt 0.2404 0.5988 0.0000
vt 0.2404 0.5622 0.0000
vt 0.2734 0.5621 0.0000
vt 0.8649 0.5970 0.0000
vt 0.8661 0.5612 0.0000
vt 0.9046 0.5610 0.0000
vt 0.0893 0.5957 0.0000
vt 0.0563 0.5606 0.0000
vt 0.0875 0.5607 0.0000
vt 0.9649 0.5958 0.0000
vt 0.9358 0.5609 0.0000
vt 0.9670 0.5611 0.0000
vt 0.4256 0.5986 0.0000
vt 0.4256 0.5619 0.0000
vt 0.7187 0.5990 0.0000
vt 0.6856 0.5989 0.0000
vt 0.6857 0.5623 0.0000
vt 0.7187 0.5623 0.0000
vt 0.0237 0.5241 0.0000
vt 0.0251 0.5607 0.0000
vt 0.4651 0.3939 0.0000
vt 0.4651 0.3616 0.0000
vt 0.4959 0.3617 0.0000
vt 0.5271 0.3939 0.0000
vt 0.4964 0.3617 0.0000
vt 0.5272 0.3617 0.0000
vt 0.3817 0.7889 0.0000
vt 0.3817 0.7896 0.0000
vt 0.3496 0.7890 0.0000
vt 0.3496 0.7883 0.0000
vt 0.1237 0.3300 0.0000
vt 0.1237 0.3621 0.0000
vt 0.0849 0.3621 0.0000
vt 0.8685 0.3946 0.0000
vt 0.8685 0.3624 0.0000
vt 0.9073 0.3624 0.0000
vt 0.0226 0.3301 0.0000
vt 0.0536 0.3621 0.0000
vt 0.0227 0.3622 0.0000
vt 0.9695 0.3948 0.0000
vt 0.9386 0.3625 0.0000
vt 0.9696 0.3626 0.0000
vt 0.2731 0.3298 0.0000
vt 0.3061 0.3297 0.0000
vt 0.3062 0.3618 0.0000
vt 0.2731 0.3619 0.0000
vt 0.7191 0.3943 0.0000
vt 0.6860 0.3942 0.0000
vt 0.6861 0.3620 0.0000
vt 0.7191 0.3621 0.0000
vt 0.4648 0.1267 0.0000
vt 0.4959 0.1267 0.0000
vt 0.4959 0.1621 0.0000
vt 0.4648 0.1620 0.0000
vt 0.4966 0.1267 0.0000
vt 0.5276 0.1267 0.0000
vt 0.5276 0.1620 0.0000
vt 0.4965 0.1621 0.0000
vt 0.1151 0.7886 0.0000
vt 0.1151 0.7879 0.0000
vt 0.1503 0.7879 0.0000
vt 0.1503 0.7886 0.0000
vt 0.1234 0.1271 0.0000
vt 0.1235 0.1624 0.0000
vt 0.0847 0.1625 0.0000
vt 0.7196 0.1271 0.0000
vt 0.7526 0.1272 0.0000
vt 0.7525 0.1625 0.0000
vt 0.7195 0.1624 0.0000
vt 0.0224 0.1272 0.0000
vt 0.0534 0.1625 0.0000
vt 0.0224 0.1626 0.0000
vt 0.9078 0.1275 0.0000
vt 0.9390 0.1629 0.0000
vt 0.9077 0.1628 0.0000
vt 0.2728 0.1269 0.0000
vt 0.3059 0.1269 0.0000
vt 0.3059 0.1622 0.0000
vt 0.2729 0.1623 0.0000
vt 0.5674 0.1268 0.0000
vt 0.5673 0.1621 0.0000
vt 0.9699 0.1995 0.0000
vt 0.9700 0.1629 0.0000
vt 0.2402 0.3941 0.0000
vt 0.2401 0.3619 0.0000
vt 0.7522 0.3300 0.0000
vt 0.7521 0.3621 0.0000
vt 0.8024 0.7523 0.0000
vt 0.8024 0.7530 0.0000
vt 0.2278 0.7459 0.0000
vt 0.2278 0.7453 0.0000
vt 0.2398 0.0628 0.0000
vt 0.2397 0.0308 0.0000
vt 0.2399 0.1988 0.0000
vt 0.2399 0.1623 0.0000
vt 0.2401 0.2977 0.0000
vt 0.2400 0.2665 0.0000
vt 0.2025 0.6681 0.0000
vt 0.2024 0.6350 0.0000
vt 0.2018 0.5620 0.0000
vt 0.2015 0.5245 0.0000
vt 0.2015 0.4569 0.0000
vt 0.2014 0.4264 0.0000
vt 0.7185 0.6670 0.0000
vt 0.7186 0.6357 0.0000
vt 0.7515 0.6357 0.0000
vt 0.7194 0.6679 0.0000
vt 0.7518 0.5247 0.0000
vt 0.7517 0.5624 0.0000
vt 0.7520 0.4266 0.0000
vt 0.7519 0.4571 0.0000
vt 0.7916 0.0311 0.0000
vt 0.7915 0.0631 0.0000
vt 0.7913 0.1626 0.0000
vt 0.7912 0.1991 0.0000
vt 0.7911 0.2668 0.0000
vt 0.7910 0.2980 0.0000
vt 0.2015 0.4868 0.0000
vt 0.7518 0.4870 0.0000
vt 0.2400 0.2353 0.0000
vt 0.7912 0.2356 0.0000
vt 0.2025 0.6991 0.0000
vt 0.7194 0.6697 0.0000
vt 0.7203 0.6688 0.0000
vt 0.7515 0.6689 0.0000
vt 0.7515 0.6998 0.0000
vt 0.2398 0.0917 0.0000
vt 0.7915 0.0920 0.0000
vt 0.2022 0.5985 0.0000
vt 0.7516 0.5991 0.0000
vt 0.2401 0.3298 0.0000
vt 0.7520 0.3944 0.0000
vt 0.2399 0.1270 0.0000
vt 0.7914 0.1272 0.0000
vt 0.3333 0.7421 0.0000
vt 0.3333 0.7427 0.0000
vt 0.3459 0.3618 0.0000
vt 0.3459 0.3940 0.0000
vt 0.6464 0.3619 0.0000
vt 0.6464 0.3298 0.0000
vt 0.6978 0.7509 0.0000
vt 0.6978 0.7502 0.0000
vt 0.3455 0.0307 0.0000
vt 0.3455 0.0627 0.0000
vt 0.3456 0.1622 0.0000
vt 0.3457 0.1987 0.0000
vt 0.3458 0.2664 0.0000
vt 0.3458 0.2976 0.0000
vt 0.2735 0.6668 0.0000
vt 0.2734 0.6355 0.0000
vt 0.3065 0.6354 0.0000
vt 0.2744 0.6677 0.0000
vt 0.3064 0.5244 0.0000
vt 0.3064 0.5621 0.0000
vt 0.3063 0.4568 0.0000
vt 0.6457 0.6686 0.0000
vt 0.6458 0.6355 0.0000
vt 0.6460 0.5622 0.0000
vt 0.6460 0.5245 0.0000
vt 0.6462 0.4569 0.0000
vt 0.6462 0.4264 0.0000
vt 0.6867 0.0629 0.0000
vt 0.6867 0.0309 0.0000
vt 0.6864 0.1989 0.0000
vt 0.6865 0.1624 0.0000
vt 0.6863 0.2666 0.0000
vt 0.3063 0.4867 0.0000
vt 0.6461 0.4867 0.0000
vt 0.3457 0.2352 0.0000
vt 0.6863 0.2354 0.0000
vt 0.2744 0.6695 0.0000
vt 0.2753 0.6686 0.0000
vt 0.3065 0.6685 0.0000
vt 0.3065 0.6994 0.0000
vt 0.6457 0.6995 0.0000
vt 0.3456 0.0916 0.0000
vt 0.6866 0.0918 0.0000
vt 0.3065 0.5988 0.0000
vt 0.6459 0.5989 0.0000
vt 0.3458 0.3297 0.0000
vt 0.6463 0.3941 0.0000
vt 0.3456 0.1268 0.0000
vt 0.6866 0.1270 0.0000
vt 0.7709 0.7886 0.0000
vt 0.7709 0.7879 0.0000
vt 0.7722 0.7879 0.0000
vt 0.7722 0.7886 0.0000
vt 0.7796 0.7886 0.0000
vt 0.7796 0.7879 0.0000
vt 0.7809 0.7879 0.0000
vt 0.7809 0.7886 0.0000
vt 0.7759 0.7886 0.0000
vt 0.7759 0.7879 0.0000
vt 0.7771 0.7879 0.0000
vt 0.7771 0.7886 0.0000
vt 0.7734 0.7886 0.0000
vt 0.7734 0.7879 0.0000
vt 0.7746 0.7879 0.0000
vt 0.7746 0.7886 0.0000
vt 0.9449 0.8107 0.0000
vt 0.9417 0.8149 0.0000
vt 0.9364 0.8103 0.0000
vt 0.9407 0.8047 0.0000
vt 0.9496 0.8137 0.0000
vt 0.9442 0.8056 0.0000
vt 0.9518 0.8073 0.0000
vt 0.9462 0.8192 0.0000
vt 0.9383 0.8184 0.0000
vt 0.9326 0.8163 0.0000
vt 0.9412 0.8239 0.0000
vt 0.9357 0.8249 0.0000
vt 0.9328 0.8173 0.0000
vt 0.9278 0.8124 0.0000
vt 0.9300 0.8063 0.0000
vt 0.9291 0.8260 0.0000
vt 0.9274 0.8194 0.0000
vt 0.9222 0.8239 0.0000
vt 0.9219 0.8210 0.0000
vt 0.9245 0.8235 0.0000
vt 0.9229 0.8246 0.0000
vt 0.9345 0.8018 0.0000
vt 0.9183 0.8258 0.0000
vt 0.9156 0.8266 0.0000
vt 0.9151 0.8203 0.0000
vt 0.9203 0.8231 0.0000
vt 0.9465 0.7998 0.0000
vt 0.9533 0.8001 0.0000
vt 0.9542 0.8167 0.0000
vt 0.9593 0.8168 0.0000
vt 0.9566 0.8249 0.0000
vt 0.9508 0.8223 0.0000
vt 0.9584 0.8101 0.0000
vt 0.9456 0.8273 0.0000
vt 0.9525 0.8316 0.0000
vt 0.9409 0.8314 0.0000
vt 0.9593 0.8331 0.0000
vt 0.9634 0.8275 0.0000
vt 0.9264 0.8253 0.0000
vt 0.9321 0.8317 0.0000
vt 0.9247 0.8276 0.0000
vt 0.9648 0.8205 0.0000
vt 0.9592 0.8032 0.0000
vt 0.9225 0.8263 0.0000
vt 0.9233 0.8296 0.0000
vt 0.9207 0.8276 0.0000
vt 0.9217 0.8256 0.0000
vt 0.8500 0.8300 0.0000
vt 0.8467 0.8289 0.0000
vt 0.8588 0.8287 0.0000
vt 0.8589 0.8295 0.0000
vt 0.8510 0.8271 0.0000
vt 0.8588 0.8271 0.0000
vt 0.8588 0.8278 0.0000
vt 0.8492 0.8279 0.0000
vt 0.8559 0.8259 0.0000
vt 0.8589 0.8258 0.0000
vt 0.8589 0.8266 0.0000
vt 0.8534 0.8265 0.0000
vt 0.8536 0.8252 0.0000
vt 0.8511 0.8245 0.0000
vt 0.8589 0.8242 0.0000
vt 0.8589 0.8250 0.0000
vt 0.8728 0.8286 0.0000
vt 0.8728 0.8295 0.0000
vt 0.8728 0.8269 0.0000
vt 0.8728 0.8278 0.0000
vt 0.8729 0.8257 0.0000
vt 0.8728 0.8264 0.0000
vt 0.8729 0.8240 0.0000
vt 0.8729 0.8248 0.0000
vt 0.8855 0.8284 0.0000
vt 0.8855 0.8294 0.0000
vt 0.8854 0.8268 0.0000
vt 0.8855 0.8277 0.0000
vt 0.8855 0.8255 0.0000
vt 0.8855 0.8262 0.0000
vt 0.8855 0.8239 0.0000
vt 0.8855 0.8247 0.0000
vt 0.8518 0.8258 0.0000
vt 0.8500 0.8249 0.0000
vt 0.9212 0.8181 0.0000
vt 0.9211 0.8251 0.0000
vt 0.9217 0.8245 0.0000
vt 0.9234 0.8250 0.0000
vt 0.9229 0.8257 0.0000
vt 0.9250 0.8336 0.0000
vt 0.9181 0.8328 0.0000
vt 0.8857 0.8284 0.0000
vt 0.8857 0.8294 0.0000
vt 0.8857 0.8268 0.0000
vt 0.8857 0.8276 0.0000
vt 0.8857 0.8255 0.0000
vt 0.8857 0.8263 0.0000
vt 0.8857 0.8239 0.0000
vt 0.8857 0.8247 0.0000
vt 0.7784 0.7886 0.0000
vt 0.7784 0.7879 0.0000
vt 0.6583 0.7449 0.0000
vt 0.6583 0.7455 0.0000
vt 0.6187 0.7427 0.0000
vt 0.6187 0.7421 0.0000
vt 0.3463 0.6685 0.0000
vt 0.3462 0.6354 0.0000
vt 0.3859 0.6353 0.0000
vt 0.3860 0.6684 0.0000
vt 0.3461 0.5620 0.0000
vt 0.3461 0.5243 0.0000
vt 0.3858 0.5243 0.0000
vt 0.3859 0.5620 0.0000
vt 0.3460 0.4568 0.0000
vt 0.3460 0.4262 0.0000
vt 0.3857 0.4262 0.0000
vt 0.3857 0.4567 0.0000
vt 0.6470 0.0308 0.0000
vt 0.6470 0.0628 0.0000
vt 0.6072 0.0627 0.0000
vt 0.6073 0.0307 0.0000
vt 0.6468 0.1623 0.0000
vt 0.6467 0.1988 0.0000
vt 0.6070 0.1987 0.0000
vt 0.6070 0.1622 0.0000
vt 0.6465 0.2665 0.0000
vt 0.6465 0.2977 0.0000
vt 0.6068 0.2977 0.0000
vt 0.6068 0.2664 0.0000
vt 0.3460 0.4866 0.0000
vt 0.3858 0.4866 0.0000
vt 0.6466 0.2353 0.0000
vt 0.6069 0.2352 0.0000
vt 0.3462 0.6994 0.0000
vt 0.3860 0.6993 0.0000
vt 0.6469 0.0917 0.0000
vt 0.6072 0.0916 0.0000
vt 0.3462 0.5987 0.0000
vt 0.3859 0.5987 0.0000
vt 0.6468 0.1269 0.0000
vt 0.6071 0.1269 0.0000
vt 0.4126 0.7500 0.0000
vt 0.4126 0.7507 0.0000
vt 0.3731 0.7445 0.0000
vt 0.3730 0.7438 0.0000
vt 0.4253 0.3617 0.0000
vt 0.4254 0.3939 0.0000
vt 0.3856 0.3940 0.0000
vt 0.3856 0.3617 0.0000
vt 0.5669 0.3618 0.0000
vt 0.5670 0.3297 0.0000
vt 0.6067 0.3297 0.0000
vt 0.6066 0.3618 0.0000
vt 0.4249 0.0306 0.0000
vt 0.4250 0.0626 0.0000
vt 0.3852 0.0626 0.0000
vt 0.3852 0.0307 0.0000
vt 0.4251 0.1621 0.0000
vt 0.4251 0.1986 0.0000
vt 0.3854 0.1987 0.0000
vt 0.3854 0.1621 0.0000
vt 0.4252 0.2663 0.0000
vt 0.4253 0.2975 0.0000
vt 0.3855 0.2976 0.0000
vt 0.3855 0.2664 0.0000
vt 0.5665 0.6679 0.0000
vt 0.5664 0.6352 0.0000
vt 0.6061 0.6354 0.0000
vt 0.6060 0.6686 0.0000
vt 0.5665 0.5620 0.0000
vt 0.5666 0.5243 0.0000
vt 0.6063 0.5244 0.0000
vt 0.6062 0.5621 0.0000
vt 0.5667 0.4567 0.0000
vt 0.5668 0.4262 0.0000
vt 0.6065 0.4263 0.0000
vt 0.6064 0.4568 0.0000
vt 0.5667 0.4866 0.0000
vt 0.6064 0.4867 0.0000
vt 0.4252 0.2351 0.0000
vt 0.3855 0.2351 0.0000
vt 0.5666 0.6990 0.0000
vt 0.6060 0.6995 0.0000
vt 0.4250 0.0915 0.0000
vt 0.3853 0.0916 0.0000
vt 0.5664 0.5987 0.0000
vt 0.6062 0.5988 0.0000
vt 0.4253 0.3296 0.0000
vt 0.3856 0.3297 0.0000
vt 0.5668 0.3940 0.0000
vt 0.6066 0.3941 0.0000
vt 0.4250 0.1267 0.0000
vt 0.3853 0.1268 0.0000
vt 0.2013 0.3620 0.0000
vt 0.2014 0.3942 0.0000
vt 0.1626 0.3942 0.0000
vt 0.1625 0.3620 0.0000
vt 0.7909 0.3622 0.0000
vt 0.7910 0.3301 0.0000
vt 0.8298 0.3302 0.0000
vt 0.8297 0.3623 0.0000
vt 0.1898 0.7450 0.0000
vt 0.1898 0.7457 0.0000
vt 0.1526 0.7468 0.0000
vt 0.1526 0.7462 0.0000
vt 0.2009 0.0309 0.0000
vt 0.2010 0.0629 0.0000
vt 0.1622 0.0629 0.0000
vt 0.1621 0.0309 0.0000
vt 0.2011 0.1623 0.0000
vt 0.2011 0.1989 0.0000
vt 0.1623 0.1989 0.0000
vt 0.1623 0.1624 0.0000
vt 0.2012 0.2666 0.0000
vt 0.2013 0.2978 0.0000
vt 0.1625 0.2978 0.0000
vt 0.1624 0.2666 0.0000
vt 0.7895 0.6684 0.0000
vt 0.7896 0.6353 0.0000
vt 0.8270 0.6343 0.0000
vt 0.8269 0.6673 0.0000
vt 0.7903 0.5623 0.0000
vt 0.7906 0.5248 0.0000
vt 0.8291 0.5246 0.0000
vt 0.8282 0.5618 0.0000
vt 0.7907 0.4572 0.0000
vt 0.7908 0.4267 0.0000
vt 0.8296 0.4267 0.0000
vt 0.8295 0.4573 0.0000
vt 0.7907 0.4870 0.0000
vt 0.8295 0.4871 0.0000
vt 0.2012 0.2353 0.0000
vt 0.1624 0.2354 0.0000
vt 0.7895 0.6993 0.0000
vt 0.8268 0.6982 0.0000
vt 0.2010 0.0918 0.0000
vt 0.1622 0.0918 0.0000
vt 0.7898 0.5987 0.0000
vt 0.8274 0.5979 0.0000
vt 0.2013 0.3299 0.0000
vt 0.1625 0.3299 0.0000
vt 0.7908 0.3944 0.0000
vt 0.8297 0.3945 0.0000
vt 0.2011 0.1270 0.0000
vt 0.1622 0.1270 0.0000
vt 0.8800 0.7500 0.0000
vt 0.8800 0.7506 0.0000
vt 0.8412 0.7511 0.0000
vt 0.8412 0.7504 0.0000
vt 0.1285 0.6650 0.0000
vt 0.1281 0.6324 0.0000
vt 0.1650 0.6340 0.0000
vt 0.1652 0.6671 0.0000
vt 0.1260 0.5609 0.0000
vt 0.1247 0.5241 0.0000
vt 0.1630 0.5244 0.0000
vt 0.1639 0.5615 0.0000
vt 0.1238 0.4570 0.0000
vt 0.1626 0.4264 0.0000
vt 0.1627 0.4570 0.0000
vt 0.8692 0.0313 0.0000
vt 0.8691 0.0632 0.0000
vt 0.8303 0.0632 0.0000
vt 0.8304 0.0312 0.0000
vt 0.8689 0.1627 0.0000
vt 0.8689 0.1993 0.0000
vt 0.8300 0.1992 0.0000
vt 0.8301 0.1626 0.0000
vt 0.8687 0.2670 0.0000
vt 0.8298 0.2981 0.0000
vt 0.8299 0.2669 0.0000
vt 0.1239 0.4869 0.0000
vt 0.1627 0.4868 0.0000
vt 0.8688 0.2357 0.0000
vt 0.8300 0.2357 0.0000
vt 0.1287 0.6978 0.0000
vt 0.1652 0.6979 0.0000
vt 0.8691 0.0922 0.0000
vt 0.8303 0.0921 0.0000
vt 0.1272 0.5967 0.0000
vt 0.1647 0.5976 0.0000
vt 0.8690 0.1274 0.0000
vt 0.8302 0.1273 0.0000
vt 0.8857 0.8301 0.0000
vt 0.8855 0.8301 0.0000
vt 0.8729 0.8302 0.0000
vt 0.8589 0.8303 0.0000
vt 0.8511 0.8304 0.0000
vt 0.8491 0.8266 0.0000
vt 0.8466 0.8260 0.0000
# 883 texture coords

g note_A4_001
usemtl Note_A4_textures
s 2
f 1/1/1 2/2/2 3/3/3 4/4/4 
s 4
f 5/5/5 6/6/6 7/7/7 8/8/8 
s 8
f 9/9/9 10/10/9 11/11/9 12/12/9 
s 16
f 13/13/10 14/14/10 15/15/10 16/16/10 
s 32
f 17/17/11 18/18/12 19/19/13 20/20/13 
s 64
f 21/21/14 22/22/14 23/23/14 24/24/14 
s 2
f 25/25/15 26/26/16 27/27/17 28/28/18 
s 4
f 29/29/19 30/30/20 31/31/21 32/32/22 
s 8
f 33/33/23 34/34/23 35/35/23 36/36/23 
s 32
f 37/37/24 38/38/24 39/39/25 40/40/25 
f 41/41/26 42/42/27 43/43/28 44/44/29 
s 2
f 45/45/30 46/46/31 47/47/32 48/48/33 
s 4
f 14/49/34 49/50/35 50/51/36 15/52/37 
s 8
f 51/53/9 52/54/9 53/55/9 54/56/9 
s 2
f 55/57/38 56/58/39 57/59/40 58/60/41 
s 4
f 59/61/42 60/62/43 61/63/44 62/64/45 
s 8
f 63/65/9 64/66/9 10/10/9 9/9/9 
s 32
f 65/67/46 66/68/47 67/69/48 68/70/49 
s 2
f 69/71/50 70/72/51 71/73/52 72/74/53 
f 73/75/54 74/76/55 75/77/56 76/78/57 
f 77/79/57 78/80/56 79/81/56 24/24/57 
f 9/82/58 12/83/59 80/84/59 81/85/58 
f 82/86/60 83/87/61 84/88/62 85/89/63 
f 86/90/64 87/91/65 4/4/4 3/3/3 
s 4
f 88/92/66 89/93/67 90/94/68 91/95/69 
f 92/96/70 93/97/71 94/98/72 95/99/73 
f 96/100/73 97/101/72 23/23/72 98/102/73 
f 11/103/74 10/104/75 99/105/75 100/106/74 
f 101/107/76 102/108/77 103/109/78 104/110/79 
f 105/111/80 106/112/81 8/8/8 7/7/7 
s 16
f 107/113/82 108/114/83 109/115/84 110/116/85 
f 111/117/86 112/118/87 113/119/88 114/120/89 
f 115/121/10 116/122/10 117/123/10 118/124/10 
f 119/125/10 120/126/10 121/127/10 122/128/10 
s 64
f 12/83/14 11/103/14 100/106/14 80/84/14 
f 83/87/14 101/107/14 104/110/14 84/88/14 
f 87/91/14 105/111/14 7/7/14 4/4/14 
f 89/93/90 69/71/91 72/74/92 90/94/93 
f 93/97/14 73/75/14 76/78/14 94/98/14 
f 97/101/14 77/79/14 24/24/14 23/23/14 
s 2
f 54/129/94 123/130/95 124/131/95 125/132/94 
f 126/133/96 127/134/97 128/135/98 129/136/99 
f 130/137/100 131/138/101 132/139/102 133/140/103 
f 134/141/104 135/142/105 136/143/106 137/144/107 
f 138/145/108 139/146/109 140/147/110 141/148/111 
f 142/149/112 143/150/113 144/151/114 58/60/41 
s 4
f 145/152/115 146/153/116 147/154/117 148/155/118 
f 149/156/119 150/157/120 151/158/121 152/159/122 
f 153/160/123 154/161/124 155/162/125 156/163/126 
f 35/164/127 34/165/128 157/166/128 158/167/127 
f 159/168/129 160/169/130 161/170/131 162/171/132 
f 163/172/133 164/173/134 165/174/135 62/64/45 
s 2
f 116/175/136 51/176/137 166/177/137 117/178/136 
f 120/179/138 167/180/139 168/181/140 121/182/141 
f 169/183/142 170/184/143 171/185/144 172/186/145 
f 173/187/146 174/188/147 175/189/148 176/190/149 
s 4
f 108/191/150 177/192/151 178/193/152 109/194/153 
f 112/195/154 179/196/155 180/197/156 113/198/157 
f 53/199/158 52/200/159 181/201/159 182/202/158 
f 183/203/160 184/204/161 185/205/162 186/206/163 
s 2
f 36/207/164 187/208/165 188/209/165 189/210/164 
f 190/211/166 191/212/167 192/213/168 193/214/169 
f 194/215/170 195/216/171 196/217/172 197/218/173 
f 70/72/51 198/219/174 199/220/175 71/73/52 
f 74/76/55 200/221/176 201/222/177 75/77/56 
f 78/80/56 202/223/177 203/224/177 79/81/56 
s 4
f 204/225/178 205/226/179 206/227/180 207/228/181 
f 208/229/182 209/230/183 210/231/184 211/232/185 
f 212/233/186 213/234/187 214/235/188 215/236/189 
f 10/104/75 64/237/190 216/238/190 99/105/75 
f 102/108/77 217/239/191 218/240/192 103/109/78 
f 106/112/81 219/241/193 220/242/194 8/8/8 
s 32
f 44/44/29 43/43/28 18/18/12 17/17/11 
s 2
f 133/140/103 221/243/195 222/244/196 223/245/197 
s 4
f 156/163/126 224/246/198 225/247/199 226/248/200 
s 8
f 116/249/9 115/250/9 52/54/9 51/53/9 
s 2
f 54/129/94 125/132/94 166/177/137 51/176/137 
f 125/132/94 227/251/94 228/252/137 166/177/137 
f 20/253/201 107/254/202 170/184/143 17/255/203 
f 110/256/204 229/257/205 230/258/206 171/185/144 
s 4
f 43/259/207 145/152/115 177/192/151 18/260/208 
f 148/155/118 231/261/209 232/262/210 178/193/152 
f 115/263/211 118/264/211 181/201/159 52/200/159 
f 118/264/211 233/265/211 234/266/159 181/201/159 
s 2
f 76/78/57 75/77/56 78/80/56 77/79/57 
s 4
f 95/99/73 94/98/72 97/101/72 96/100/73 
s 64
f 94/98/14 76/78/14 77/79/14 97/101/14 
s 2
f 141/148/111 140/147/110 143/150/113 142/149/112 
s 4
f 152/159/122 151/158/121 154/161/124 153/160/123 
s 2
f 75/77/56 201/222/177 202/223/177 78/80/56 
s 4
f 211/232/185 210/231/184 213/234/187 212/233/186 
s 2
f 85/89/63 84/88/62 87/91/65 86/90/64 
s 4
f 104/110/79 103/109/78 106/112/81 105/111/80 
s 64
f 84/88/14 104/110/14 105/111/14 87/91/14 
s 2
f 129/136/99 128/135/98 131/138/101 130/137/100 
s 4
f 162/171/132 161/170/131 164/173/134 163/172/133 
s 2
f 193/214/169 192/213/168 195/216/171 194/215/170 
s 4
f 103/109/78 218/240/192 219/241/193 106/112/81 
s 16
f 235/267/212 236/268/10 48/269/10 237/270/212 
s 2
f 237/271/213 48/48/33 238/272/214 239/273/215 
s 4
f 156/163/126 240/274/216 241/275/217 153/160/123 
s 2
f 242/276/218 176/190/149 243/277/219 244/278/220 
s 4
f 113/198/157 245/279/221 246/280/222 235/281/223 
s 16
f 113/119/88 235/267/212 237/270/212 114/120/89 
s 2
f 114/282/224 247/283/225 248/284/226 175/189/148 
s 4
f 152/159/122 249/285/227 250/286/228 180/197/156 
s 2
f 28/28/18 251/287/229 252/288/230 47/47/32 
s 4
f 236/289/231 253/290/232 254/291/233 226/248/200 
f 235/281/223 246/280/222 253/290/232 236/289/231 
f 240/274/216 156/163/126 226/248/200 254/291/233 
f 153/160/123 241/275/217 249/285/227 152/159/122 
f 180/197/156 250/286/228 245/279/221 113/198/157 
s 128
f 253/292/234 238/293/235 252/294/236 254/295/237 
f 246/296/238 239/297/238 238/293/235 253/292/234 
f 245/298/239 247/299/240 239/297/238 246/296/238 
f 250/300/241 248/301/242 247/299/240 245/298/239 
f 241/302/243 244/303/243 243/304/244 249/305/245 
f 240/306/246 251/307/247 244/303/243 241/302/243 
f 254/295/237 252/294/236 251/307/247 240/306/246 
s 2
f 247/283/225 114/282/224 237/271/213 239/273/215 
f 248/284/226 243/277/219 176/190/149 175/189/148 
f 28/28/18 242/276/218 244/278/220 251/287/229 
f 238/272/214 48/48/33 47/47/32 252/288/230 
s 16
f 255/308/10 256/309/10 16/16/10 15/15/10 
s 2
f 256/310/248 257/311/249 258/312/250 16/313/251 
s 4
f 32/32/22 259/314/252 260/315/253 261/316/254 
s 2
f 130/137/100 262/317/255 263/318/256 129/136/99 
s 4
f 122/319/257 255/320/258 264/321/259 265/322/260 
s 16
f 122/128/10 121/127/10 256/309/10 255/308/10 
s 2
f 121/182/141 168/181/140 266/323/261 267/324/262 
s 4
f 186/206/163 185/205/162 268/325/263 269/326/264 
s 2
f 133/140/103 223/245/197 270/327/265 271/328/266 
s 4
f 15/52/37 50/51/36 272/329/267 273/330/268 
f 255/320/258 15/52/37 273/330/268 264/321/259 
f 261/316/254 272/329/267 50/51/36 32/32/22 
f 259/314/252 186/206/163 269/326/264 260/315/253 
f 185/205/162 122/319/257 265/322/260 268/325/263 
s 128
f 273/331/269 272/332/270 270/333/271 258/334/269 
f 264/335/272 273/336/269 258/337/269 257/338/273 
f 265/339/274 264/335/272 257/338/273 267/340/275 
f 268/341/276 265/339/274 267/340/275 266/342/277 
f 260/343/278 269/344/279 263/345/280 262/346/281 
f 261/347/282 260/343/278 262/346/281 271/348/283 
f 272/332/270 261/347/282 271/348/283 270/333/271 
s 2
f 267/324/262 257/311/249 256/310/248 121/182/141 
f 266/323/261 168/181/140 129/136/99 263/318/256 
f 133/140/103 271/328/266 262/317/255 130/137/100 
f 258/312/250 270/327/265 223/245/197 16/313/251 
f 65/349/284 68/350/285 70/72/51 69/71/50 
s 4
f 67/351/286 66/352/287 89/93/67 88/92/66 
s 16
f 20/353/288 19/354/288 108/114/83 107/113/82 
s 64
f 66/352/289 65/349/290 69/71/91 89/93/90 
s 2
f 274/355/291 275/356/292 40/357/293 276/358/294 
s 4
f 43/259/207 42/359/295 146/153/116 145/152/115 
s 2
f 44/360/296 17/255/203 170/184/143 169/183/142 
s 4
f 19/361/297 18/260/208 177/192/151 108/191/150 
s 2
f 68/350/285 277/362/298 198/219/174 70/72/51 
s 4
f 278/363/299 279/364/300 39/365/301 38/366/302 
s 2
f 110/256/204 171/185/144 170/184/143 107/254/202 
s 4
f 148/155/118 178/193/152 177/192/151 145/152/115 
s 2
f 81/85/58 80/84/59 280/367/59 281/368/58 
s 4
f 100/106/74 99/105/75 282/369/75 283/370/74 
s 16
f 118/124/10 117/123/10 284/371/10 233/372/10 
s 64
f 80/84/14 100/106/14 283/370/14 280/367/14 
s 2
f 125/132/94 124/131/95 285/373/95 227/251/94 
s 4
f 158/167/127 157/166/128 286/374/128 287/375/127 
s 2
f 117/178/136 166/177/137 228/252/137 284/376/136 
s 4
f 182/202/158 181/201/159 234/266/159 288/377/158 
s 2
f 189/210/164 188/209/165 289/378/165 290/379/164 
s 4
f 99/105/75 216/238/190 291/380/190 282/369/75 
s 2
f 292/381/94 293/382/137 228/252/137 227/251/94 
s 4
f 294/383/211 295/384/159 234/266/159 233/265/211 
s 2
f 296/385/303 297/386/304 298/387/305 299/388/306 
s 4
f 300/389/307 301/390/308 302/391/309 303/392/310 
s 16
f 229/393/311 304/394/312 305/395/313 306/396/314 
s 64
f 301/390/315 296/385/316 299/388/317 302/391/318 
s 2
f 307/397/319 308/398/320 309/399/321 310/400/322 
s 4
f 231/261/209 311/401/323 312/402/324 313/403/325 
s 2
f 314/404/326 230/258/206 315/405/327 316/406/328 
s 4
f 304/407/329 232/262/210 317/408/330 305/409/331 
s 2
f 297/386/304 318/410/332 319/411/333 298/387/305 
s 4
f 320/412/334 321/413/335 322/414/336 323/415/337 
s 2
f 111/416/338 174/188/147 315/405/327 306/417/339 
s 4
f 149/156/119 179/196/155 317/408/330 313/403/325 
s 2
f 21/21/57 324/418/56 325/419/340 326/420/341 
s 4
f 327/421/73 22/22/72 328/422/342 329/423/343 
s 16
f 45/424/10 330/425/10 331/426/10 332/427/10 
s 64
f 1/1/14 6/6/14 328/422/14 326/420/14 
s 2
f 221/243/195 333/428/344 334/429/345 335/430/346 
s 4
f 224/246/198 336/431/347 337/432/348 338/433/349 
s 2
f 13/434/350 222/244/196 339/435/351 332/436/352 
s 4
f 330/437/353 225/247/199 340/438/354 331/439/355 
s 2
f 341/440/356 342/441/357 343/442/358 344/443/359 
s 4
f 345/444/360 346/445/361 347/446/362 348/447/363 
s 2
f 25/25/15 46/46/31 339/435/351 335/430/346 
s 4
f 29/29/19 49/50/35 340/438/354 338/433/349 
s 2
f 349/448/58 350/449/59 351/450/59 352/451/58 
s 4
f 353/452/74 354/453/75 355/454/75 356/455/74 
s 16
f 294/456/10 357/457/10 358/458/10 359/459/10 
s 64
f 350/449/14 353/452/14 356/455/14 351/450/14 
s 2
f 292/381/94 360/460/364 361/461/365 362/462/94 
s 4
f 363/463/366 364/464/367 365/465/368 366/466/369 
s 2
f 357/467/136 293/382/137 367/468/137 358/469/136 
s 4
f 368/470/158 295/384/159 369/471/159 370/472/158 
s 2
f 371/473/370 372/474/371 373/475/372 374/476/373 
s 4
f 354/453/75 375/477/190 376/478/190 355/454/75 
s 2
f 126/133/96 167/180/139 367/468/137 362/462/94 
s 4
f 119/479/211 184/204/161 369/471/159 359/480/211 
s 2
f 344/443/359 55/57/38 377/481/374 378/482/375 
s 4
f 348/447/363 59/61/42 379/483/376 380/484/377 
s 8
f 381/485/23 382/486/23 34/34/23 33/33/23 
s 32
f 40/40/25 39/39/25 383/487/378 276/488/379 
s 2
f 36/207/164 189/210/164 384/489/380 33/490/380 
f 374/476/373 190/211/166 385/491/381 386/492/382 
f 194/215/170 197/218/173 387/493/383 388/494/384 
f 389/495/385 390/496/386 136/143/106 135/142/105 
f 391/497/387 392/498/388 139/146/109 309/399/321 
f 393/499/389 394/500/390 144/151/114 143/150/113 
s 4
f 395/501/391 396/502/392 397/503/393 398/504/394 
f 323/415/337 208/229/182 399/505/395 400/506/396 
f 212/233/186 215/236/189 401/507/397 402/508/398 
f 382/509/399 403/510/399 157/166/128 34/165/128 
f 404/511/400 405/512/401 160/169/130 365/465/368 
f 406/513/402 407/514/403 165/174/135 164/173/134 
s 2
f 408/515/404 393/499/389 143/150/113 140/147/110 
s 4
f 211/232/185 212/233/186 402/508/398 409/516/405 
s 2
f 193/214/169 194/215/170 388/494/384 410/517/406 
s 4
f 411/518/407 406/513/402 164/173/134 161/170/131 
s 2
f 412/519/408 389/495/385 135/142/105 276/358/294 
s 4
f 413/520/409 414/521/410 415/522/411 383/523/412 
s 2
f 189/210/164 290/379/164 416/524/380 384/489/380 
s 4
f 403/510/399 417/525/399 286/374/128 157/166/128 
s 2
f 390/496/386 418/526/413 308/398/320 136/143/106 
s 4
f 396/502/392 320/412/334 419/527/414 397/503/393 
s 2
f 197/218/173 341/440/356 420/528/415 387/493/383 
s 4
f 215/236/189 345/444/360 421/529/416 401/507/397 
s 2
f 290/379/164 371/473/370 422/530/417 416/524/380 
s 4
f 417/525/399 423/531/418 364/464/367 286/374/128 
s 32
f 424/532/24 425/533/24 38/38/24 37/37/24 
s 2
f 426/534/419 427/535/420 56/58/39 343/442/358 
s 4
f 428/536/421 429/537/422 60/62/43 347/446/362 
s 8
f 36/36/23 35/35/23 430/538/9 187/539/9 
s 2
f 431/540/423 432/541/423 188/209/165 187/208/165 
f 433/542/424 434/543/425 191/212/167 373/475/372 
f 435/544/426 436/545/427 196/217/172 195/216/171 
f 437/546/428 438/547/429 439/548/430 440/549/431 
f 310/400/322 138/145/108 441/550/432 442/551/433 
f 142/149/112 58/60/41 57/59/40 443/552/434 
s 4
f 444/553/435 445/554/436 206/227/180 205/226/179 
f 446/555/437 447/556/438 209/230/183 322/414/336 
f 448/557/439 449/558/440 214/235/188 213/234/187 
f 35/164/127 158/167/127 450/559/441 430/560/441 
f 366/466/369 159/168/129 451/561/442 452/562/443 
f 163/172/133 62/64/45 61/63/44 453/563/444 
s 2
f 141/148/111 142/149/112 443/552/434 454/564/445 
s 4
f 455/565/446 448/557/439 213/234/187 210/231/184 
s 2
f 456/566/447 435/544/426 195/216/171 192/213/168 
s 4
f 162/171/132 163/172/133 453/563/444 457/567/448 
s 2
f 458/568/449 459/569/450 460/570/451 37/571/452 
s 4
f 425/572/453 444/553/435 205/226/179 38/366/302 
s 2
f 432/541/423 461/573/423 289/378/165 188/209/165 
s 4
f 158/167/127 287/375/127 462/574/441 450/559/441 
s 2
f 438/547/429 307/397/319 463/575/454 439/548/430 
s 4
f 445/554/436 464/576/455 321/413/335 206/227/180 
s 2
f 436/545/427 465/577/456 342/441/357 196/217/172 
s 4
f 449/558/440 466/578/457 346/445/361 214/235/188 
s 2
f 461/573/423 467/579/458 372/474/371 289/378/165 
s 4
f 287/375/127 363/463/366 468/580/459 462/574/441 
s 1
f 134/581/460 414/582/461 413/583/462 274/584/463 
s 8
f 137/585/464 398/586/465 414/587/466 134/588/467 
s 1
f 459/589/468 204/590/469 207/591/470 440/592/471 
s 8
f 275/593/472 279/594/473 278/595/474 458/596/475 
s 2
f 469/597/476 470/598/477 471/599/478 472/600/479 
f 473/601/480 469/597/476 472/602/479 474/603/481 
f 469/597/476 473/601/480 475/604/482 470/598/477 
f 476/605/483 477/606/484 471/599/478 470/598/477 
f 478/607/485 476/605/483 470/598/477 475/604/482 
f 476/605/483 478/607/485 479/608/486 477/609/484 
f 480/610/487 481/611/488 471/599/478 477/606/484 
f 482/612/489 480/613/487 477/609/484 479/608/486 
f 483/614/490 484/615/491 485/616/492 486/617/493 
f 487/618/494 472/600/479 471/599/478 481/611/488 
f 488/619/495 489/620/496 487/621/494 490/622/497 
f 487/623/494 489/624/496 474/603/481 472/602/479 
f 491/625/498 492/626/499 493/627/500 494/628/501 
f 473/601/480 491/625/498 494/628/501 475/604/482 
f 491/625/498 473/601/480 474/603/481 492/629/499 
f 495/630/502 494/628/501 493/627/500 496/631/503 
f 478/607/485 495/630/502 496/632/503 479/608/486 
f 495/630/502 478/607/485 475/604/482 494/628/501 
f 497/633/504 496/631/503 493/627/500 498/634/505 
f 499/635/506 482/612/489 497/636/504 500/637/507 
f 497/636/504 482/612/489 479/608/486 496/632/503 
f 501/638/508 498/634/505 493/627/500 492/626/499 
f 489/624/496 501/639/508 492/629/499 474/603/481 
f 502/640/509 503/641/510 504/642/511 505/643/512 
s 8
f 506/644/513 507/645/514 508/646/515 509/647/516 
f 510/648/517 511/649/518 512/650/519 513/651/520 
f 514/652/521 515/653/522 516/654/523 517/655/524 
f 518/656/525 519/657/526 520/658/527 521/659/528 
f 508/646/515 522/660/529 523/661/530 509/647/516 
f 511/649/518 524/662/531 525/663/532 512/650/519 
f 515/653/522 526/664/533 527/665/534 516/654/523 
f 520/658/527 528/666/535 529/667/536 521/659/528 
f 522/660/529 530/668/537 531/669/538 523/661/530 
f 524/662/531 532/670/539 533/671/540 525/663/532 
f 526/664/533 534/672/541 535/673/542 527/665/534 
f 528/666/535 536/674/543 537/675/544 529/667/536 
s 1
f 538/676/545 506/677/546 519/657/547 518/656/548 
s 2
f 481/678/488 480/613/487 485/616/492 484/615/491 
f 539/679/549 488/619/495 490/622/497 540/680/550 
f 541/681/551 499/635/506 500/637/507 542/682/552 
f 498/683/505 501/684/508 504/642/511 503/641/510 
s 8
f 530/668/537 483/685/553 486/686/554 531/669/538 
f 532/670/539 539/687/555 540/688/556 533/671/540 
f 502/689/557 505/690/558 535/673/542 534/672/541 
f 541/691/559 542/692/560 537/675/544 536/674/543 
s 4
f 39/365/301 279/364/300 413/520/409 383/523/412 
f 414/521/410 398/504/394 397/503/393 415/522/411 
f 205/226/179 204/225/178 278/363/299 38/366/302 
f 395/501/391 207/228/181 206/227/180 396/502/392 
s 2
f 40/357/293 275/356/292 458/568/449 37/571/452 
f 459/569/450 440/549/431 439/548/430 460/570/451 
f 437/546/428 137/144/107 136/143/106 438/547/429 
f 135/142/105 134/141/104 274/355/291 276/358/294 
s 8
f 437/693/561 395/694/562 398/586/465 137/585/464 
s 1
f 279/594/563 275/593/564 274/584/463 413/583/462 
f 395/694/565 437/693/566 440/592/471 207/591/470 
s 8
f 204/590/567 459/589/568 458/596/475 278/595/474 
f 431/695/9 543/696/9 544/697/9 545/698/9 
s 2
f 546/699/569 547/700/570 548/701/571 549/702/572 
f 550/703/573 551/704/574 552/705/575 553/706/576 
f 554/707/577 555/708/577 556/709/578 557/710/578 
s 4
f 543/711/579 558/712/579 559/713/580 544/714/580 
f 560/715/581 561/716/582 562/717/583 563/718/584 
f 564/719/585 565/720/586 566/721/587 567/722/588 
s 2
f 568/723/589 554/707/577 557/710/578 569/724/578 
s 4
f 570/725/590 564/719/585 567/722/588 571/726/591 
s 2
f 424/727/592 546/699/569 549/702/572 572/728/593 
s 4
f 558/712/579 573/729/579 574/730/580 559/713/580 
s 2
f 547/700/570 575/731/594 576/732/595 548/701/571 
s 4
f 573/729/579 577/733/596 578/734/597 574/730/580 
s 32
f 277/735/598 579/736/599 580/737/600 572/738/601 
s 2
f 581/739/602 582/740/177 583/741/603 584/742/604 
s 4
f 585/743/605 586/744/606 587/745/607 588/746/608 
s 2
f 63/747/609 589/748/609 590/749/610 545/750/610 
f 591/751/609 592/752/611 593/753/612 594/754/613 
f 595/755/614 596/756/615 597/757/616 598/758/617 
s 4
f 599/759/618 600/760/619 601/761/620 602/762/621 
f 603/763/622 604/764/623 605/765/624 606/766/625 
f 607/767/626 608/768/626 609/769/627 610/770/627 
f 611/771/626 607/767/626 610/770/627 612/772/628 
s 2
f 613/773/629 595/755/614 598/758/617 614/774/630 
s 4
f 579/775/631 599/759/618 602/762/621 580/776/632 
s 2
f 589/748/609 615/777/609 616/778/610 590/749/610 
s 4
f 600/760/619 617/779/633 618/780/634 601/761/620 
s 2
f 596/756/615 619/781/635 620/782/636 597/757/616 
s 4
f 608/768/626 621/783/626 622/784/637 609/769/627 
s 2
f 615/777/609 623/785/609 624/786/610 616/778/610 
f 625/787/638 626/788/639 627/789/640 628/790/641 
s 4
f 629/791/642 630/792/643 631/793/644 632/794/645 
s 32
f 412/795/646 633/796/647 634/797/648 635/798/649 
s 2
f 381/799/650 636/800/650 637/801/651 638/802/651 
f 639/803/652 640/804/653 641/805/654 642/806/655 
f 643/807/656 644/808/657 645/809/658 646/810/659 
s 4
f 647/811/660 648/812/661 649/813/662 650/814/663 
f 651/815/664 652/816/665 653/817/666 654/818/667 
f 655/819/668 656/820/668 657/821/669 658/822/670 
f 659/823/671 655/819/668 658/822/670 660/824/672 
s 2
f 661/825/673 643/807/656 646/810/659 662/826/674 
s 4
f 633/827/675 647/811/660 650/814/663 634/828/676 
s 2
f 636/800/650 663/829/650 664/830/651 637/801/651 
s 4
f 648/812/661 665/831/677 666/832/678 649/813/662 
s 2
f 644/808/657 667/833/679 668/834/680 645/809/658 
s 4
f 656/820/668 669/835/681 670/836/682 657/821/669 
s 2
f 663/829/650 671/837/683 672/838/684 664/830/651 
s 8
f 123/839/9 673/840/9 674/841/9 638/842/9 
s 2
f 675/843/685 676/844/686 677/845/687 678/846/688 
f 679/847/689 680/848/690 681/849/691 682/850/692 
f 683/851/693 27/27/17 684/852/694 685/853/695 
s 4
f 673/854/696 686/855/696 687/856/697 674/857/697 
f 688/858/698 689/859/699 690/860/700 691/861/701 
f 692/862/702 31/31/21 693/863/703 694/864/704 
s 2
f 695/865/705 683/851/693 685/853/695 696/866/706 
s 4
f 697/867/707 692/862/702 694/864/704 698/868/708 
s 2
f 41/869/709 675/843/685 678/846/688 635/870/710 
s 4
f 686/855/696 699/871/696 700/872/697 687/856/697 
s 2
f 676/844/686 701/873/711 702/874/712 677/845/687 
s 4
f 699/871/696 703/875/696 704/876/713 700/872/697 
s 32
f 572/738/601 580/737/600 425/533/24 424/532/24 
s 2
f 584/742/604 583/741/603 427/535/420 426/534/419 
s 4
f 588/746/608 587/745/607 429/537/422 428/536/421 
s 2
f 545/750/610 590/749/610 432/541/423 431/540/423 
f 594/754/613 593/753/612 434/543/425 433/542/424 
f 598/758/617 597/757/616 436/545/427 435/544/426 
s 4
f 602/762/621 601/761/620 445/554/436 444/553/435 
f 606/766/625 605/765/624 447/556/438 446/555/437 
f 610/770/627 609/769/627 449/558/440 448/557/439 
f 612/772/628 610/770/627 448/557/439 455/565/446 
s 2
f 614/774/630 598/758/617 435/544/426 456/566/447 
s 4
f 580/776/632 602/762/621 444/553/435 425/572/453 
s 2
f 590/749/610 616/778/610 461/573/423 432/541/423 
s 4
f 601/761/620 618/780/634 464/576/455 445/554/436 
s 2
f 597/757/616 620/782/636 465/577/456 436/545/427 
s 4
f 609/769/627 622/784/637 466/578/457 449/558/440 
s 2
f 616/778/610 624/786/610 467/579/458 461/573/423 
s 8
f 187/539/9 430/538/9 543/696/9 431/695/9 
s 2
f 460/570/451 439/548/430 547/700/570 546/699/569 
f 442/551/433 441/550/432 551/704/574 550/703/573 
f 443/552/434 57/59/40 555/708/577 554/707/577 
s 4
f 430/560/441 450/559/441 558/712/579 543/711/579 
f 452/562/443 451/561/442 561/716/582 560/715/581 
f 453/563/444 61/63/44 565/720/586 564/719/585 
s 2
f 454/564/445 443/552/434 554/707/577 568/723/589 
s 4
f 457/567/448 453/563/444 564/719/585 570/725/590 
s 2
f 37/571/452 460/570/451 546/699/569 424/727/592 
s 4
f 450/559/441 462/574/441 573/729/579 558/712/579 
s 2
f 439/548/430 463/575/454 575/731/594 547/700/570 
s 4
f 462/574/441 468/580/459 577/733/596 573/729/579 
s 8
f 545/698/9 544/697/9 64/66/9 63/65/9 
s 2
f 549/702/572 548/701/571 199/220/175 198/219/174 
f 553/706/576 552/705/575 200/221/176 319/411/333 
f 557/710/578 556/709/578 203/224/177 202/223/177 
s 4
f 544/714/580 559/713/580 216/238/190 64/237/190 
f 563/718/584 562/717/583 217/239/191 376/478/190 
f 567/722/588 566/721/587 220/242/194 219/241/193 
s 2
f 569/724/578 557/710/578 202/223/177 201/222/177 
s 4
f 571/726/591 567/722/588 219/241/193 218/240/192 
s 2
f 572/728/593 549/702/572 198/219/174 277/362/298 
s 4
f 559/713/580 574/730/580 291/380/190 216/238/190 
s 2
f 548/701/571 576/732/595 318/410/332 199/220/175 
s 4
f 574/730/580 578/734/597 375/477/190 291/380/190 
s 32
f 68/70/49 67/69/48 579/736/599 277/735/598 
s 2
f 325/419/340 324/418/56 582/740/177 581/739/602 
s 4
f 329/423/343 5/5/5 586/744/606 585/743/605 
s 2
f 9/82/58 81/85/58 589/748/609 63/747/609 
f 352/451/58 82/86/60 592/752/611 591/751/609 
f 86/90/64 3/3/3 596/756/615 595/755/614 
s 4
f 88/92/66 91/95/69 600/760/619 599/759/618 
f 303/392/310 92/96/70 604/764/623 603/763/622 
f 96/100/73 98/102/73 608/768/626 607/767/626 
f 95/99/73 96/100/73 607/767/626 611/771/626 
s 2
f 85/89/63 86/90/64 595/755/614 613/773/629 
s 4
f 67/351/286 88/92/66 599/759/618 579/775/631 
s 2
f 81/85/58 281/368/58 615/777/609 589/748/609 
s 4
f 91/95/69 300/389/307 617/779/633 600/760/619 
s 2
f 3/3/3 2/2/2 619/781/635 596/756/615 
s 4
f 98/102/73 327/421/73 621/783/626 608/768/626 
s 2
f 281/368/58 349/448/58 623/785/609 615/777/609 
s 8
f 638/842/9 674/841/9 382/486/23 381/485/23 
s 2
f 678/846/688 677/845/687 390/496/386 389/495/385 
f 682/850/692 681/849/691 392/498/388 391/497/387 
f 685/853/695 684/852/694 394/500/390 393/499/389 
s 4
f 674/857/697 687/856/697 403/510/399 382/509/399 
f 691/861/701 690/860/700 405/512/401 404/511/400 
f 694/864/704 693/863/703 407/514/403 406/513/402 
s 2
f 696/866/706 685/853/695 393/499/389 408/515/404 
s 4
f 698/868/708 694/864/704 406/513/402 411/518/407 
s 2
f 635/870/710 678/846/688 389/495/385 412/519/408 
s 4
f 687/856/697 700/872/697 417/525/399 403/510/399 
s 2
f 677/845/687 702/874/712 418/526/413 390/496/386 
s 4
f 700/872/697 704/876/713 423/531/418 417/525/399 
s 2
f 378/482/375 377/481/374 626/788/639 625/787/638 
s 4
f 380/484/377 379/483/376 630/792/643 629/791/642 
s 32
f 276/488/379 383/487/378 633/796/647 412/795/646 
s 2
f 33/490/380 384/489/380 636/800/650 381/799/650 
f 386/492/382 385/491/381 640/804/653 639/803/652 
f 388/494/384 387/493/383 644/808/657 643/807/656 
s 4
f 415/522/411 397/503/393 648/812/661 647/811/660 
f 400/506/396 399/505/395 652/816/665 651/815/664 
f 402/508/398 401/507/397 656/820/668 655/819/668 
f 409/516/405 402/508/398 655/819/668 659/823/671 
s 2
f 410/517/406 388/494/384 643/807/656 661/825/673 
s 4
f 383/523/412 415/522/411 647/811/660 633/827/675 
s 2
f 384/489/380 416/524/380 663/829/650 636/800/650 
s 4
f 397/503/393 419/527/414 665/831/677 648/812/661 
s 2
f 387/493/383 420/528/415 667/833/679 644/808/657 
s 4
f 401/507/397 421/529/416 669/835/681 656/820/668 
s 2
f 416/524/380 422/530/417 671/837/683 663/829/650 
f 628/790/641 627/789/640 26/26/16 334/429/345 
s 4
f 632/794/645 631/793/644 30/30/20 337/432/348 
s 32
f 635/798/649 634/797/648 42/42/27 41/41/26 
s 2
f 638/802/651 637/801/651 124/131/95 123/130/95 
f 642/806/655 641/805/654 127/134/97 361/461/365 
f 646/810/659 645/809/658 132/139/102 131/138/101 
s 4
f 650/814/663 649/813/662 147/154/117 146/153/116 
f 654/818/667 653/817/666 150/157/120 312/402/324 
f 658/822/670 657/821/669 155/162/125 154/161/124 
f 660/824/672 658/822/670 154/161/124 151/158/121 
s 2
f 662/826/674 646/810/659 131/138/101 128/135/98 
s 4
f 634/828/676 650/814/663 146/153/116 42/359/295 
s 2
f 637/801/651 664/830/651 285/373/95 124/131/95 
s 4
f 649/813/662 666/832/678 311/401/323 147/154/117 
s 2
f 645/809/658 668/834/680 333/428/344 132/139/102 
s 4
f 657/821/669 670/836/682 336/431/347 155/162/125 
s 2
f 664/830/651 672/838/684 360/460/364 285/373/95 
s 8
f 54/56/9 53/55/9 673/840/9 123/839/9 
s 2
f 169/183/142 172/186/145 676/844/686 675/843/685 
f 316/406/328 173/187/146 680/848/690 679/847/689 
f 242/276/218 28/28/18 27/27/17 683/851/693 
s 4
f 53/199/158 182/202/158 686/855/696 673/854/696 
f 370/472/158 183/203/160 689/859/699 688/858/698 
f 259/314/252 32/32/22 31/31/21 692/862/702 
s 2
f 176/190/149 242/276/218 683/851/693 695/865/705 
s 4
f 186/206/163 259/314/252 692/862/702 697/867/707 
s 2
f 44/360/296 169/183/142 675/843/685 41/869/709 
s 4
f 182/202/158 288/377/158 699/871/696 686/855/696 
s 2
f 172/186/145 314/404/326 701/873/711 676/844/686 
s 4
f 288/377/158 368/470/158 703/875/696 699/871/696 
s 2
f 362/462/94 367/468/137 293/382/137 292/381/94 
s 4
f 359/480/211 369/471/159 295/384/159 294/383/211 
s 2
f 281/368/58 280/367/59 350/449/59 349/448/58 
s 4
f 283/370/74 282/369/75 354/453/75 353/452/74 
s 16
f 233/372/10 284/371/10 357/457/10 294/456/10 
s 64
f 280/367/14 283/370/14 353/452/14 350/449/14 
s 2
f 227/251/94 285/373/95 360/460/364 292/381/94 
s 4
f 287/375/127 286/374/128 364/464/367 363/463/366 
s 2
f 284/376/136 228/252/137 293/382/137 357/467/136 
s 4
f 288/377/158 234/266/159 295/384/159 368/470/158 
s 2
f 290/379/164 289/378/165 372/474/371 371/473/370 
s 4
f 282/369/75 291/380/190 375/477/190 354/453/75 
s 2
f 374/476/373 386/492/382 422/530/417 371/473/370 
s 4
f 404/511/400 365/465/368 364/464/367 423/531/418 
s 2
f 433/542/424 373/475/372 372/474/371 467/579/458 
s 4
f 366/466/369 452/562/443 468/580/459 363/463/366 
f 560/715/581 563/718/584 578/734/597 577/733/596 
s 2
f 591/751/609 594/754/613 624/786/610 623/785/609 
f 639/803/652 642/806/655 672/838/684 671/837/683 
s 4
f 688/858/698 691/861/701 704/876/713 703/875/696 
s 2
f 594/754/613 433/542/424 467/579/458 624/786/610 
s 4
f 452/562/443 560/715/581 577/733/596 468/580/459 
f 563/718/584 376/478/190 375/477/190 578/734/597 
s 2
f 352/451/58 591/751/609 623/785/609 349/448/58 
s 4
f 691/861/701 404/511/400 423/531/418 704/876/713 
s 2
f 386/492/382 639/803/652 671/837/683 422/530/417 
f 642/806/655 361/461/365 360/460/364 672/838/684 
s 4
f 370/472/158 688/858/698 703/875/696 368/470/158 
s 2
f 352/451/58 351/450/59 83/87/61 82/86/60 
s 4
f 356/455/74 355/454/75 102/108/77 101/107/76 
s 16
f 359/459/10 358/458/10 120/126/10 119/125/10 
s 64
f 351/450/14 356/455/14 101/107/14 83/87/14 
s 2
f 362/462/94 361/461/365 127/134/97 126/133/96 
s 4
f 366/466/369 365/465/368 160/169/130 159/168/129 
s 2
f 358/469/136 367/468/137 167/180/139 120/179/138 
s 4
f 370/472/158 369/471/159 184/204/161 183/203/160 
s 2
f 374/476/373 373/475/372 191/212/167 190/211/166 
s 4
f 355/454/75 376/478/190 217/239/191 102/108/77 
s 2
f 129/136/99 168/181/140 167/180/139 126/133/96 
s 4
f 122/319/257 185/205/162 184/204/161 119/479/211 
s 2
f 193/214/169 410/517/406 385/491/381 190/211/166 
s 4
f 411/518/407 161/170/131 160/169/130 405/512/401 
s 2
f 456/566/447 192/213/168 191/212/167 434/543/425 
s 4
f 162/171/132 457/567/448 451/561/442 159/168/129 
f 570/725/590 571/726/591 562/717/583 561/716/582 
s 2
f 613/773/629 614/774/630 593/753/612 592/752/611 
f 661/825/673 662/826/674 641/805/654 640/804/653 
s 4
f 697/867/707 698/868/708 690/860/700 689/859/699 
s 2
f 614/774/630 456/566/447 434/543/425 593/753/612 
s 4
f 457/567/448 570/725/590 561/716/582 451/561/442 
f 571/726/591 218/240/192 217/239/191 562/717/583 
s 2
f 85/89/63 613/773/629 592/752/611 82/86/60 
s 4
f 698/868/708 411/518/407 405/512/401 690/860/700 
s 2
f 410/517/406 661/825/673 640/804/653 385/491/381 
f 662/826/674 128/135/98 127/134/97 641/805/654 
s 4
f 186/206/163 697/867/707 689/859/699 183/203/160 
s 2
f 299/388/306 298/387/305 74/76/55 73/75/54 
s 4
f 303/392/310 302/391/309 93/97/71 92/96/70 
s 16
f 306/396/314 305/395/313 112/118/87 111/117/86 
s 64
f 302/391/318 299/388/317 73/75/14 93/97/14 
s 2
f 310/400/322 309/399/321 139/146/109 138/145/108 
s 4
f 313/403/325 312/402/324 150/157/120 149/156/119 
s 2
f 316/406/328 315/405/327 174/188/147 173/187/146 
s 4
f 305/409/331 317/408/330 179/196/155 112/195/154 
s 2
f 298/387/305 319/411/333 200/221/176 74/76/55 
s 4
f 323/415/337 322/414/336 209/230/183 208/229/182 
s 2
f 114/282/224 175/189/148 174/188/147 111/416/338 
s 4
f 152/159/122 180/197/156 179/196/155 149/156/119 
s 2
f 408/515/404 140/147/110 139/146/109 392/498/388 
s 4
f 211/232/185 409/516/405 399/505/395 208/229/182 
s 2
f 141/148/111 454/564/445 441/550/432 138/145/108 
s 4
f 455/565/446 210/231/184 209/230/183 447/556/438 
s 2
f 568/723/589 569/724/578 552/705/575 551/704/574 
s 4
f 611/771/626 612/772/628 605/765/624 604/764/623 
f 659/823/671 660/824/672 653/817/666 652/816/665 
s 2
f 695/865/705 696/866/706 681/849/691 680/848/690 
s 4
f 612/772/628 455/565/446 447/556/438 605/765/624 
s 2
f 454/564/445 568/723/589 551/704/574 441/550/432 
f 569/724/578 201/222/177 200/221/176 552/705/575 
s 4
f 95/99/73 611/771/626 604/764/623 92/96/70 
s 2
f 696/866/706 408/515/404 392/498/388 681/849/691 
s 4
f 409/516/405 659/823/671 652/816/665 399/505/395 
f 660/824/672 151/158/121 150/157/120 653/817/666 
s 2
f 176/190/149 695/865/705 680/848/690 173/187/146 
f 306/417/339 315/405/327 230/258/206 229/257/205 
s 4
f 313/403/325 317/408/330 232/262/210 231/261/209 
s 2
f 72/74/53 71/73/52 297/386/304 296/385/303 
s 4
f 91/95/69 90/94/68 301/390/308 300/389/307 
s 16
f 110/116/85 109/115/84 304/394/312 229/393/311 
s 64
f 90/94/93 72/74/92 296/385/316 301/390/315 
s 2
f 438/547/429 136/143/106 308/398/320 307/397/319 
s 4
f 148/155/118 147/154/117 311/401/323 231/261/209 
s 2
f 172/186/145 171/185/144 230/258/206 314/404/326 
s 4
f 109/194/153 178/193/152 232/262/210 304/407/329 
s 2
f 71/73/52 199/220/175 318/410/332 297/386/304 
s 4
f 396/502/392 206/227/180 321/413/335 320/412/334 
s 2
f 391/497/387 309/399/321 308/398/320 418/526/413 
s 4
f 323/415/337 400/506/396 419/527/414 320/412/334 
s 2
f 310/400/322 442/551/433 463/575/454 307/397/319 
s 4
f 446/555/437 322/414/336 321/413/335 464/576/455 
s 2
f 550/703/573 553/706/576 576/732/595 575/731/594 
s 4
f 603/763/622 606/766/625 618/780/634 617/779/633 
f 651/815/664 654/818/667 666/832/678 665/831/677 
s 2
f 679/847/689 682/850/692 702/874/712 701/873/711 
s 4
f 606/766/625 446/555/437 464/576/455 618/780/634 
s 2
f 442/551/433 550/703/573 575/731/594 463/575/454 
f 553/706/576 319/411/333 318/410/332 576/732/595 
s 4
f 303/392/310 603/763/622 617/779/633 300/389/307 
s 2
f 682/850/692 391/497/387 418/526/413 702/874/712 
s 4
f 400/506/396 651/815/664 665/831/677 419/527/414 
f 654/818/667 312/402/324 311/401/323 666/832/678 
s 2
f 316/406/328 679/847/689 701/873/711 314/404/326 
s 64
f 326/420/14 328/422/14 22/22/14 21/21/14 
s 2
f 335/430/346 334/429/345 26/26/16 25/25/15 
f 332/436/352 339/435/351 46/46/31 45/45/30 
f 344/443/359 343/442/358 56/58/39 55/57/38 
s 4
f 338/433/349 340/438/354 225/247/199 224/246/198 
s 2
f 24/24/57 79/81/56 324/418/56 21/21/57 
s 4
f 98/102/73 23/23/72 22/22/72 327/421/73 
s 16
f 48/269/10 236/268/10 330/425/10 45/424/10 
s 4
f 156/163/126 155/162/125 336/431/347 224/246/198 
f 236/289/231 226/248/200 225/247/199 330/437/353 
f 215/236/189 214/235/188 346/445/361 345/444/360 
s 2
f 28/28/18 47/47/32 46/46/31 25/25/15 
f 58/60/41 144/151/114 377/481/374 55/57/38 
s 4
f 348/447/363 380/484/377 421/529/416 345/444/360 
s 2
f 555/708/577 57/59/40 56/58/39 427/535/420 
s 4
f 428/536/421 347/446/362 346/445/361 466/578/457 
s 2
f 203/224/177 556/709/578 583/741/603 582/740/177 
s 4
f 585/743/605 588/746/608 622/784/637 621/783/626 
s 2
f 394/500/390 684/852/694 627/789/640 626/788/639 
s 4
f 629/791/642 632/794/645 670/836/682 669/835/681 
s 2
f 556/709/578 555/708/577 427/535/420 583/741/603 
s 4
f 588/746/608 428/536/421 466/578/457 622/784/637 
s 2
f 79/81/56 203/224/177 582/740/177 324/418/56 
s 4
f 329/423/343 585/743/605 621/783/626 327/421/73 
s 2
f 144/151/114 394/500/390 626/788/639 377/481/374 
s 4
f 380/484/377 629/791/642 669/835/681 421/529/416 
s 2
f 684/852/694 27/27/17 26/26/16 627/789/640 
s 4
f 632/794/645 337/432/348 336/431/347 670/836/682 
s 2
f 326/420/341 325/419/340 2/2/2 1/1/1 
s 4
f 329/423/343 328/422/342 6/6/6 5/5/5 
s 16
f 332/427/10 331/426/10 14/14/10 13/13/10 
s 4
f 338/433/349 337/432/348 30/30/20 29/29/19 
f 331/439/355 340/438/354 49/50/35 14/49/34 
f 348/447/363 347/446/362 60/62/43 59/61/42 
s 2
f 335/430/346 339/435/351 222/244/196 221/243/195 
s 64
f 4/4/14 7/7/14 6/6/14 1/1/14 
s 2
f 133/140/103 132/139/102 333/428/344 221/243/195 
f 16/313/251 223/245/197 222/244/196 13/434/350 
f 197/218/173 196/217/172 342/441/357 341/440/356 
s 4
f 32/32/22 50/51/36 49/50/35 29/29/19 
f 62/64/45 165/174/135 379/483/376 59/61/42 
s 2
f 344/443/359 378/482/375 420/528/415 341/440/356 
s 4
f 565/720/586 61/63/44 60/62/43 429/537/422 
s 2
f 426/534/419 343/442/358 342/441/357 465/577/456 
s 4
f 220/242/194 566/721/587 587/745/607 586/744/606 
s 2
f 581/739/602 584/742/604 620/782/636 619/781/635 
s 4
f 407/514/403 693/863/703 631/793/644 630/792/643 
s 2
f 625/787/638 628/790/641 668/834/680 667/833/679 
s 4
f 566/721/587 565/720/586 429/537/422 587/745/607 
s 2
f 584/742/604 426/534/419 465/577/456 620/782/636 
s 4
f 8/8/8 220/242/194 586/744/606 5/5/5 
s 2
f 325/419/340 581/739/602 619/781/635 2/2/2 
s 4
f 165/174/135 407/514/403 630/792/643 379/483/376 
s 2
f 378/482/375 625/787/638 667/833/679 420/528/415 
s 4
f 693/863/703 31/31/21 30/30/20 631/793/644 
s 2
f 628/790/641 334/429/345 333/428/344 668/834/680 
f 484/615/491 490/622/497 487/621/494 481/678/488 
f 490/622/497 484/615/491 483/614/490 540/680/550 
s 8
f 483/685/553 530/668/537 533/671/540 540/688/556 
f 530/668/537 522/660/529 525/663/532 533/671/540 
f 522/660/529 508/646/515 512/650/519 525/663/532 
f 508/646/515 507/645/514 513/651/520 512/650/519 
s 2
f 482/612/489 499/635/506 485/616/492 480/613/487 
f 485/616/492 499/635/506 541/681/551 486/617/493 
s 8
f 541/877/559 536/878/543 531/669/538 486/686/554 
f 536/878/543 528/879/535 523/661/530 531/669/538 
f 528/879/535 520/880/527 509/647/516 523/661/530 
f 509/647/516 520/880/527 519/881/526 506/644/513 
s 2
f 503/641/510 500/637/507 497/636/504 498/683/505 
f 500/637/507 503/641/510 502/640/509 542/682/552 
s 8
f 542/692/560 502/689/557 534/672/541 537/675/544 
f 534/672/541 526/664/533 529/667/536 537/675/544 
f 526/664/533 515/653/522 521/659/528 529/667/536 
f 521/659/528 515/653/522 514/652/521 518/656/525 
s 2
f 489/620/496 488/619/495 504/642/511 501/684/508 
f 504/642/511 488/619/495 539/679/549 505/643/512 
s 8
f 505/690/558 539/687/555 532/670/539 535/673/542 
f 532/670/539 524/662/531 527/665/534 535/673/542 
f 524/662/531 511/649/518 516/654/523 527/665/534 
f 511/649/518 510/648/517 517/655/524 516/654/523 
s 1
f 513/882/714 507/883/546 506/677/546 538/676/545 
f 518/656/548 514/652/715 517/655/716 538/676/545 
f 538/676/545 517/655/716 510/648/717 513/882/714 
s 128
f 248/98/242 250/107/241 249/110/245 243/79/244 
f 263/345/280 269/344/279 268/341/276 266/342/277 
# 706 polygons

