# 
# Wavefront material file
# Created with Kaydara FBX
# 

newmtl BigWheel_Big_Wheel
Kd 0.8 0.8 0.8
Ka 0.2 0.2 0.2
Ks 0.813433 0.813433 0.813433
Ke 0 0 0
Ns 20
illum 2
map_Kd Assets\\Textures\\Big_Wheel_color.png
bump Assets\\Textures\\Big_Wheel_colorN.png
map_bump Assets\\Textures\\Big_Wheel_colorN.png

newmtl BigWheel_Big_Wheel_Seat
Kd 0.8 0.8 0.8
Ka 0.2 0.2 0.2
Ks 0.5 0.5 0.5
Ke 0 0 0
Ns 20
illum 2
map_Kd Assets\\Textures\\Big_Wheel_Seat_color.png
bump Assets\\Textures\\Big_Wheel_Seat_colorN.png
map_bump Assets\\Textures\\Big_Wheel_Seat_colorN.png
